<svg width="326" height="182" viewBox="0 0 326 182" fill="none" xmlns="http://www.w3.org/2000/svg">
<rect x="-70.0566" y="-4.2583" width="480.926" height="224.68" fill="#0A0C1C"/>
<path d="M12.9111 -7.99902L17.9083 30.5651L21.6468 98.6292L44.3493 136.641L48.64 52.6866L33.9666 -6.21525L12.9111 -7.99902V-7.99902Z" fill="url(#paint0_linear)"/>
<path d="M319.339 -6.2575L315.671 9.63257L310.917 98.6291L336.441 67.4997L332.777 3.5228V-10.7427L319.339 -6.2575V-6.2575Z" fill="url(#paint1_linear)"/>
<path d="M284.607 -6.2575L270.79 44.8772L276.185 98.6291L301.709 67.4997L299.669 46.8296L298.045 -10.7427L284.607 -6.2575V-6.2575Z" fill="url(#paint2_linear)"/>
<path d="M173.971 -6.2575L160.154 44.8772L165.549 98.6291L191.073 67.4997L189.033 46.8296L187.409 -10.7427L173.971 -6.2575V-6.2575Z" fill="url(#paint3_linear)"/>
<path d="M229.189 -6.2575L225.525 9.63257L220.771 98.6291L243.474 136.641L247.765 52.6865L242.632 -10.7427L229.189 -6.2575V-6.2575Z" fill="url(#paint4_linear)"/>
<path d="M111.301 -6.2575L107.638 9.63257L102.884 98.6291L125.586 136.641L129.877 52.6865L124.744 -10.7427L111.301 -6.2575V-6.2575Z" fill="url(#paint5_linear)"/>
<path d="M33.6113 -7.64332L40.7467 10.5689L31.6367 98.6291L54.3392 136.641L58.6345 52.6865L53.497 -10.7427L33.6113 -7.64332V-7.64332Z" fill="url(#paint6_linear)"/>
<path d="M191.34 -7.64332L188.126 51.9889L189.366 98.6291L212.068 136.641L206.683 35.2046L211.226 -10.7427L191.34 -7.64332V-7.64332Z" fill="url(#paint7_linear)"/>
<path d="M75.0068 -7.64332L70.3652 38.7768L73.0323 98.6291L95.7348 136.641L82.8582 38.421L94.8925 -10.7427L75.0068 -7.64332V-7.64332Z" fill="url(#paint8_linear)"/>
<path d="M130.321 -7.64332L125.685 38.7768L128.352 98.6291L151.054 136.641L138.173 38.421L150.212 -10.7427L130.321 -7.64332V-7.64332Z" fill="url(#paint9_linear)"/>
<path d="M262.625 133.541L267.267 87.1212L264.595 27.2689L241.893 -10.7427L254.774 87.477L242.739 136.641L262.625 133.541V133.541Z" fill="url(#paint10_linear)"/>
<path d="M251.798 -7.64332L247.161 38.7768L249.828 98.6291L272.531 136.641L259.649 38.421L271.688 -10.7427L251.798 -7.64332V-7.64332Z" fill="url(#paint11_linear)"/>
<path d="M258.807 -6.2575L255.144 9.63257L250.39 98.6291L273.092 136.641L277.383 52.6865L272.25 -10.7427L258.807 -6.2575V-6.2575Z" fill="url(#paint12_linear)"/>
<path d="M305.428 -6.2575L301.76 9.63257L297.006 98.6291L319.708 136.641L324.004 52.6865L318.866 -10.7427L305.428 -6.2575V-6.2575Z" fill="url(#paint13_linear)"/>
<path d="M85.5572 -4.23943L81.8935 11.6506L77.1396 100.647L99.8421 138.659L104.133 54.7046L98.9952 -8.72461L85.5572 -4.23943V-4.23943Z" fill="url(#paint14_linear)"/>
<path d="M146.745 -6.2575L143.076 9.63257L138.327 98.6291L161.03 136.641L165.32 52.6865L160.183 -10.7427L146.745 -6.2575V-6.2575Z" fill="url(#paint15_linear)"/>
<path d="M52.1634 -6.2575L48.4951 9.63257L43.7412 98.6291L66.4484 136.641L70.739 52.6865L65.6015 -10.7427L52.1634 -6.2575V-6.2575Z" fill="url(#paint16_linear)"/>
<path d="M-4.76608 -6.2575L-8.42973 9.63257L-13.1836 98.6291L9.5189 136.641L13.8095 52.6865L8.672 -10.7427L-4.76608 -6.2575V-6.2575Z" fill="url(#paint17_linear)"/>
<path d="M28.1791 132.156L31.8428 116.265L39.9983 -9.53477L13.8942 -10.7427L9.60352 73.2116L14.7411 136.641L28.1791 132.156V132.156Z" fill="url(#paint18_linear)"/>
<path d="M212.494 -6.2575L208.83 9.63257L204.076 98.6291L226.779 136.641L231.069 52.6865L225.936 -10.7427L212.494 -6.2575V-6.2575Z" fill="url(#paint19_linear)"/>
<path d="M155.064 -7.99902L160.062 30.5651L163.8 98.6292L186.503 136.641L190.793 52.6866L176.12 -6.21525L155.064 -7.99902V-7.99902Z" fill="url(#paint20_linear)"/>
<path opacity="0.56" d="M336.076 13.3456C318.765 18.1807 302.607 26.461 288.57 37.691C262.714 58.3471 213.622 90.7687 165.587 85.5063V85.2909L164.651 85.3986L163.739 85.2909V85.5063C115.718 90.7687 66.6636 58.3471 40.77 37.691C26.7332 26.4601 10.5753 18.1796 -6.73582 13.3456L-83.8457 -8.15332L-82.1051 194.396H411.45L413.185 -8.15332L336.076 13.3456Z" fill="url(#paint21_linear)" stroke="url(#paint22_linear)" stroke-width="6"/>
<path d="M336.076 39.2594C318.765 44.0945 302.607 52.3749 288.57 63.6048C262.714 84.2563 213.622 116.678 165.587 111.415V111.195L164.651 111.303L163.739 111.195V111.411C115.718 116.678 66.6636 84.2563 40.77 63.5814C26.7332 52.3505 10.5753 44.07 -6.73582 39.236L-83.8457 17.7559L-82.1051 220.305H411.45L413.185 17.7559L336.076 39.2594Z" fill="url(#paint23_linear)" stroke="url(#paint24_linear)" stroke-width="6"/>
<path d="M199.94 200.889H122.629L102.991 92.7441L123.986 52.6724L163.879 37.2178L202.462 52.0263L221.842 92.7909L199.94 200.889V200.889Z" fill="url(#paint25_linear)" stroke="url(#paint26_linear)" stroke-width="6"/>
<path fill-rule="evenodd" clip-rule="evenodd" d="M136.011 144.104C135.544 142.788 127.982 120.227 123.748 101.846C120.697 102.782 117.197 102.824 113.505 101.949L112.532 101.719L112.827 100.783L112.83 100.775C112.929 100.469 115.385 92.9399 121.249 88.3013C121.044 86.6378 120.943 84.9631 120.945 83.287C121.099 73.5816 121.413 67.4953 124.772 64.8313C126.401 63.5298 128.623 63.0944 131.791 63.4783C132.348 60.734 133.798 58.2514 135.913 56.4181C139.624 53.1409 142.581 51.8627 145.5 52.2373C147.25 52.462 148.958 53.3234 150.647 54.8497C153.603 51.2043 157.91 48.915 162.583 48.5059L162.771 50.3786C158.528 50.7486 154.623 52.8437 151.967 56.1747C152.828 57.1402 153.621 58.1649 154.339 59.2413C156.024 61.7367 156.365 63.7545 155.364 65.248C154.166 67.0224 151.04 67.7762 146.034 67.514C145.519 68.9186 145.042 70.2997 144.569 71.6715C142.174 78.6333 139.89 85.2487 134.743 86.4519C134.538 91.4287 132.652 95.7875 129.339 98.7464C128.214 99.7529 126.938 100.577 125.559 101.19C129.465 118.177 136.355 139.087 137.614 142.904C137.736 143.276 137.805 143.485 137.813 143.514L136.011 144.104ZM114.956 100.343C117.729 100.926 120.604 100.812 123.322 100.01C122.564 96.5834 121.918 93.3342 121.521 90.4362C120.488 91.3702 119.548 92.4019 118.713 93.5168C117.168 95.6164 115.908 97.9117 114.965 100.343H114.956ZM125.095 99.3222C124.277 95.6049 123.621 92.1216 123.224 89.1065L123.233 89.0925C125.898 87.2445 129.121 86.3806 132.352 86.6486H132.82C132.577 91.0073 130.916 94.7902 128.052 97.3512C127.164 98.1443 126.169 98.8079 125.095 99.3222ZM129.774 65.2293C128.099 65.2293 126.845 65.5804 125.947 66.3014C123.256 68.4457 122.966 74.429 122.826 83.3198C122.819 84.5708 122.881 85.8212 123.013 87.0653C125.852 85.3019 129.18 84.4932 132.512 84.7571H132.858C132.858 84.1532 132.792 83.5352 132.717 82.9078C132.593 81.8716 132.468 80.8634 132.343 79.8834C131.632 74.2043 131.028 69.368 131.51 65.3089C130.93 65.2377 130.345 65.2017 129.76 65.2012L129.774 65.2293ZM134.186 79.5592L134.186 79.5592C133.5 74.0906 132.917 69.4482 133.382 65.6319L133.929 65.7396C137.28 66.4834 140.67 67.0351 144.083 67.3923C143.629 68.6423 143.203 69.8783 142.791 71.0816C140.578 77.519 138.622 83.2074 134.72 84.509C134.697 83.9191 134.645 83.3198 134.575 82.7159C134.447 81.6765 134.322 80.6637 134.201 79.6774L134.186 79.5592ZM146.722 65.6928C152.07 65.8941 153.455 64.733 153.801 64.218C154.47 63.2302 153.614 61.5447 152.776 60.3087C152.172 59.4015 151.512 58.5321 150.802 57.7056C149.134 60.1914 147.76 62.8623 146.708 65.6647L146.722 65.6928ZM134.318 63.909L133.7 63.7826L133.686 63.7545C134.175 61.4711 135.386 59.406 137.139 57.8648C140.41 54.9714 142.913 53.8197 145.252 54.1194C146.656 54.2973 148.065 55.037 149.492 56.3479C147.535 59.2111 145.947 62.31 144.766 65.5711C141.252 65.2329 137.763 64.6778 134.318 63.909Z" fill="url(#paint27_linear)"/>
<path fill-rule="evenodd" clip-rule="evenodd" d="M178.871 140.864L179.807 142.498C186.247 138.691 192.309 134.276 197.91 129.314C209.841 118.644 216.158 107.749 216.158 97.8053C216.158 90.8294 214.127 85.4313 210.117 81.7514C201.976 74.2933 187.63 75.5386 179.049 76.2877C172.7 76.8402 167.323 75.7727 163.898 73.3803C164.44 72.8485 164.929 72.2653 165.358 71.6387C168.474 67.088 168.044 60.702 164.081 52.6305L162.607 50.5986L161.25 52.5463C157.179 60.8471 156.702 67.3736 159.823 71.9336C160.161 72.4237 160.54 72.8841 160.955 73.3101C158.213 75.1641 153.357 76.9994 145.159 76.2877C136.582 75.5386 122.227 74.2933 114.095 81.7514C110.085 85.4313 108.05 90.8294 108.05 97.8053C108.05 107.749 114.366 118.644 126.321 129.314C131.927 134.276 137.993 138.691 144.438 142.498L145.374 140.864C145.367 140.859 145.344 140.846 145.305 140.823C143.545 139.794 109.94 120.144 109.94 97.7913C109.94 91.3632 111.77 86.4285 115.377 83.1185C122.897 76.2208 136.714 77.4179 144.985 78.1346L145.014 78.137C147.948 78.3945 156.749 78.741 162.453 74.6023C165.288 76.7559 170.397 78.9095 179.231 78.137L179.262 78.1344C187.538 77.4177 201.354 76.2214 208.873 83.1185C212.476 86.4285 214.305 91.3632 214.305 97.7913C214.305 120.634 179.227 140.667 178.871 140.864ZM161.404 70.8756C158.761 67.0131 159.196 61.3247 162.686 53.9602C166.102 61.128 166.495 66.7181 163.87 70.5806C163.464 71.1566 162.993 71.6843 162.467 72.1537C162.075 71.76 161.72 71.3323 161.404 70.8756Z" fill="url(#paint28_linear)"/>
<path d="M149.281 153.163C149.281 153.163 155.13 146.243 162.509 154.221C169.887 162.199 180.223 163.674 180.223 163.674L179.288 124.726L139.46 129.286L148.64 154.689L149.281 153.163Z" fill="white"/>
<path fill-rule="evenodd" clip-rule="evenodd" d="M188.88 144.155L187.106 143.556L187.117 143.525C187.453 142.519 195.126 119.585 199.36 101.232C197.981 100.618 196.705 99.7919 195.58 98.7837C192.272 95.8295 190.386 91.4707 190.176 86.4939C185.029 85.3001 182.736 78.6753 180.35 71.7135L180.179 71.2135C179.768 70.0035 179.35 68.7779 178.89 67.556C173.879 67.8182 170.753 67.0597 169.532 65.2853C168.531 63.7965 168.877 61.7786 170.561 59.2832C171.278 58.2071 172.069 57.1824 172.929 56.2167C170.273 52.8857 166.368 50.7906 162.125 50.4206L162.312 48.5479C166.999 48.9458 171.321 51.2384 174.281 54.8964C175.975 53.3701 177.683 52.5087 179.428 52.2839C182.352 51.9094 185.305 53.2203 189.015 56.4648C191.112 58.2921 192.548 60.7606 193.1 63.4875C196.286 63.1036 198.509 63.539 200.118 64.8359C203.459 67.4998 203.796 73.5862 203.946 83.2963C203.951 84.9724 203.849 86.6472 203.642 88.3105C209.397 92.8484 211.868 100.21 212.053 100.761L212.053 100.761L212.06 100.78L212.064 100.792L212.359 101.752L211.385 101.981C208.024 102.854 204.491 102.819 201.148 101.878C196.909 120.297 189.324 142.835 188.88 144.155ZM201.555 100.062C204.274 100.859 207.147 100.973 209.921 100.394C208.982 97.9624 207.723 95.6668 206.178 93.5681C205.345 92.4521 204.404 91.4203 203.37 90.4875C202.94 93.4043 202.313 96.6347 201.555 100.062ZM196.824 97.3885C193.961 94.8276 192.3 91.04 192.061 86.6812C192.203 86.6812 192.348 86.6729 192.502 86.664L192.529 86.6625C195.766 86.4021 198.992 87.2778 201.653 89.1392C201.26 92.1589 200.6 95.6422 199.782 99.3595C198.709 98.8441 197.713 98.1806 196.824 97.3885ZM193.601 84.7523C196.529 84.7376 199.403 85.5489 201.892 87.0932C202.022 85.8491 202.083 84.5987 202.074 83.3478C201.934 74.4523 201.644 68.469 198.953 66.3247C197.77 65.3883 195.973 65.0653 193.39 65.3602C193.858 69.4194 193.268 74.2557 192.557 79.9347L192.507 80.3389L192.507 80.3392C192.401 81.1946 192.293 82.0705 192.188 82.9638C192.113 83.5865 192.061 84.2045 192.043 84.8132H192.389C192.801 84.7663 193.208 84.7523 193.601 84.7523ZM181.869 70.4196C181.535 69.4388 181.195 68.4373 180.818 67.4296L180.832 67.4109C184.24 67.0627 187.625 66.5203 190.971 65.7863L191.518 65.6739C191.976 69.5049 191.395 74.1751 190.709 79.6844L190.704 79.7193C190.578 80.7025 190.452 81.7185 190.33 82.7532C190.255 83.3571 190.208 83.9564 190.18 84.551C186.278 83.2494 184.322 77.561 182.109 71.1235C182.029 70.8906 181.95 70.6562 181.869 70.4207L181.869 70.4196ZM174.099 57.7289C173.388 58.5554 172.728 59.4247 172.124 60.332C171.291 61.568 170.435 63.2487 171.099 64.2413C171.446 64.7563 172.831 65.9127 178.179 65.7161C177.132 62.9045 175.763 60.2242 174.099 57.7289ZM180.139 65.5943C178.954 62.334 177.365 59.2353 175.409 56.3712C176.84 55.0556 178.244 54.3205 179.648 54.1239C181.987 53.8383 184.486 54.99 187.761 57.8693C189.518 59.4248 190.725 61.5074 191.2 63.8059L190.583 63.9323C187.139 64.7007 183.651 65.2557 180.139 65.5943Z" fill="url(#paint29_linear)"/>
<path d="M154.629 102.103C154.629 102.103 144.504 99.5282 138.201 117.038C131.898 134.548 141.009 144.478 141.009 144.478L161.75 127.043L193.507 136.875L175.928 102.422L154.629 102.103Z" fill="#0B504F"/>
<path d="M40.1802 180.224C52.5281 180.542 66.523 180.898 81.2665 179.756C118.829 176.816 133.77 167.536 134.387 167.143V220.89L-19.9355 210.984L-8.99605 184.662L-8.77146 184.339C4.8725 179.082 21.2022 179.742 40.1802 180.224Z" fill="url(#paint30_linear)"/>
<path d="M306.888 180.224C292.608 180.542 276.423 180.898 259.373 179.756C215.928 176.816 198.653 167.536 197.938 167.143V220.89L376.413 210.984L363.78 184.662L363.523 184.339C347.722 179.082 328.837 179.742 306.888 180.224Z" fill="url(#paint31_linear)"/>
<path d="M132.245 165.434C123.022 167.986 107.1 174.989 83.6251 176.586C65.522 177.817 49.1034 178.22 33.0404 177.859C14.9374 177.457 -1.67773 177.096 -16.1826 179.241L-13.2816 169.409C1.84556 164.362 20.8095 164.783 42.7634 165.275C56.9314 165.588 72.985 165.944 89.9043 164.807C133.059 161.871 150.263 152.596 150.965 152.203V165.312L146.754 160.232C146.712 160.261 142.22 162.695 132.245 165.434Z" fill="url(#paint32_linear)"/>
<path d="M83.8313 162.227C66.4862 163.529 50.5683 163.135 35.1697 162.761C24.0711 162.489 13.6791 162.236 3.97949 162.677L6.04761 156.688C19.0365 151.908 35.4177 152.311 54.3816 152.774C66.6874 153.079 80.6308 153.397 95.3463 152.306C137.925 149.184 164.076 133.439 164.698 133.055L148.64 154.689L144.223 148.804C144.055 148.907 126.78 158.997 83.8313 162.227Z" fill="url(#paint33_linear)"/>
<path d="M-9.75797 161.932C-11.929 162.447 -13.2812 169.423 -13.2812 169.423C1.84595 164.376 20.8099 164.797 42.7638 165.289C56.9318 165.602 72.9854 165.958 89.9047 164.821C133.059 161.885 150.264 152.61 150.966 152.217L146.754 147.142C146.595 147.231 130.153 155.935 89.2777 158.711C72.7702 159.834 57.6196 159.497 42.9556 159.179C22.9997 158.739 5.42538 158.346 -9.772 161.965" fill="url(#paint34_linear)"/>
<path d="M11.452 147.714C8.82705 148.322 5.97754 156.759 5.97754 156.759C18.8963 151.937 35.998 152.213 54.8637 152.681C67.104 152.985 80.9772 153.327 95.6131 152.213C133.022 149.371 149.333 140.508 163.969 133.514L162.13 126.711C157.708 128.34 129.99 142.414 94.9627 145.078C80.7573 146.154 67.7029 145.831 55.0789 145.518C38.7024 145.11 24.1976 144.75 11.452 147.709" fill="url(#paint35_linear)"/>
<path d="M196.487 165.434C205.466 167.986 221.642 175.734 244.489 177.345C262.11 178.576 277.42 178.22 293.052 177.86C310.673 177.457 333.385 180.889 347.507 183.01L338.149 169.39C323.424 164.343 304.965 164.765 283.591 165.256C269.802 165.57 254.175 165.926 237.705 164.788C195.696 161.853 178.96 152.578 178.281 152.185V165.294L182.38 160.214C182.403 160.261 186.778 162.695 196.487 165.434Z" fill="url(#paint36_linear)"/>
<path d="M243.61 162.227C260.496 163.529 275.993 163.135 290.975 162.761C301.779 162.489 311.895 162.237 321.332 162.677L319.33 156.679C306.696 151.899 290.746 152.302 272.282 152.765C260.304 153.07 246.735 153.388 232.408 152.297C190.975 149.174 165.498 133.429 164.899 133.045L180.537 154.68L184.837 148.795C184.991 148.907 201.807 158.997 243.61 162.227Z" fill="url(#paint37_linear)"/>
<path d="M334.714 161.932C336.829 162.447 338.144 169.423 338.144 169.423C323.419 164.376 304.96 164.797 283.587 165.289C269.798 165.602 254.17 165.958 237.7 164.821C195.692 161.885 178.955 152.61 178.276 152.217L182.37 147.142C182.53 147.231 198.532 155.935 238.322 158.711C254.39 159.834 269.138 159.497 283.399 159.179C302.827 158.739 319.933 158.346 334.728 161.965" fill="url(#paint38_linear)"/>
<path d="M314.051 147.714C316.602 148.322 319.376 156.759 319.376 156.759C306.799 151.937 290.156 152.213 271.791 152.681C259.878 152.985 246.374 153.327 232.127 152.213C195.71 149.371 179.834 140.508 165.587 133.514L167.379 126.711C171.679 128.34 198.663 142.414 232.759 145.078C246.59 146.154 259.293 145.831 271.594 145.518C287.536 145.11 301.676 144.75 314.061 147.709" fill="url(#paint39_linear)"/>
<path d="M396.233 225.567L363.78 184.662L363.522 184.339C347.74 179.091 328.856 179.742 306.907 180.224C292.626 180.542 276.442 180.898 259.391 179.756C232.651 177.944 215.83 173.735 206.678 170.673L171.707 131.608L146.174 132.212L121.796 170.654C112.391 173.716 95.1259 177.925 67.6414 179.737C50.1233 180.889 33.4848 180.533 18.8255 180.205C-3.72263 179.737 -23.1218 179.072 -39.3345 184.32L-39.6012 184.643L-52.5059 210.796V230.928L396.233 231.663L401.277 231.939L396.233 225.567Z" fill="url(#paint40_linear)"/>
<path d="M306.888 180.224C292.608 180.542 276.423 180.898 259.373 179.756C232.633 177.944 215.812 173.735 206.659 170.673L202.888 166.459H124.463L121.796 170.673C112.392 173.735 95.1261 177.944 67.6417 179.756C50.1236 180.908 33.485 180.552 18.8257 180.224C-3.72235 179.756 -23.1215 179.091 -39.3342 184.339L-39.4512 184.475H363.616L363.504 184.339C347.722 179.082 328.837 179.742 306.888 180.224Z" fill="url(#paint41_linear)"/>
<path d="M-39.9707 185.088C-24.2259 178.281 -3.9705 183.263 18.8256 183.918C33.4942 184.344 50.1234 184.822 67.6416 183.281C112.275 179.349 137.223 163.725 137.958 163.201L137.265 156.042C137.223 156.075 122.479 163.178 113.047 166.563C104.32 169.69 89.2585 173.833 67.0473 175.79C49.9269 177.298 34.2148 176.844 19.0174 176.408C-2.03807 175.8 -16.1686 172.944 -32.0866 178.117L-39.9707 185.088Z" fill="url(#paint42_linear)"/>
<path d="M364.716 185.823C349.392 179.016 329.095 183.262 306.907 183.918C292.626 184.344 276.442 184.821 259.392 183.281C215.947 179.348 192.894 165.804 192.178 165.275L201.831 160.186C196.562 160.429 206.009 163.177 215.194 166.562C223.686 169.69 238.35 173.833 259.967 175.79C276.634 177.298 291.929 176.843 306.72 176.408C327.237 175.799 342.865 172.915 358.357 178.089L364.716 185.823Z" fill="url(#paint43_linear)"/>
<path d="M147.891 169.194H127.322L129.456 120.521H147.891V169.194V169.194Z" fill="url(#paint44_linear)"/>
<path d="M200.651 169.194H179.395V120.521H197.83L200.651 169.194V169.194Z" fill="url(#paint45_linear)"/>
<path d="M177.223 112.539L176.288 108.255L176.133 107.679C175.496 105.273 173.551 103.435 171.113 102.937C170.555 102.824 170.012 102.643 169.498 102.398C166.597 100.994 163.051 101.513 163.051 101.513L154.788 106.088L148.859 111.238L154.32 122.193L152.968 123.963C152.968 123.963 161.53 130.101 164.838 129.361C168.146 128.621 175.02 124.702 175.02 124.702L174.608 121.425L177.223 112.539Z" fill="#1FE1E0"/>
<path d="M170.622 102.941L175.133 102.384C175.133 102.384 177.561 102.974 178.567 104.051C179.573 105.128 180.752 107.871 180.752 107.871L183.092 109.36L184.79 110.957L189.937 112.211L193.428 115.887L194.644 117.867L194.401 120.208L193.53 120.559L193.011 120.316L192.735 122.745L192.005 123.162L190.896 123.125L190.55 124.099H189.647L188.608 123.265L187.808 123.509L187.34 123.04L186.751 118.424L186.283 117.956L185.066 117.75C185.25 118.18 185.263 118.664 185.104 119.103C184.833 119.632 184.468 120.108 184.027 120.508L183.232 120.264L183.054 116.725L183.124 116.308L184.757 115.372L183.11 115.877L180.163 115.461L176.728 111.884L170.622 102.941Z" fill="#1FE1E0"/>
<path d="M156.304 102.941L151.822 102.384C151.822 102.384 149.393 102.974 148.387 104.051C147.381 105.128 146.202 107.871 146.202 107.871L143.863 109.36L142.164 110.957L137.017 112.211L133.517 115.877L132.301 117.858L132.544 120.199L133.41 120.55L133.929 120.306L134.21 122.736L134.935 123.153L136.049 123.115L136.395 124.089H137.317L138.355 123.256L139.156 123.499L139.623 123.031L140.213 118.415L140.681 117.947L141.893 117.741C141.714 118.172 141.702 118.654 141.86 119.094C142.131 119.623 142.496 120.099 142.936 120.498L143.732 120.255L143.905 116.715L143.835 116.299L142.206 115.362L143.835 115.887L146.787 115.47L150.221 111.893L156.304 102.941Z" fill="#1FE1E0"/>
<path d="M148.603 103.035C148.603 103.035 158.382 112.469 163.711 109.959C169.04 107.45 175.942 102.431 175.942 102.431C175.942 102.431 173.747 100.966 169.462 101.176C165.176 101.387 152.884 99.2661 148.603 103.035Z" fill="#0B504F"/>
<path d="M158.938 96.4663L158.779 100.699Z" fill="#0A0C1C"/>
<path d="M158.78 98.0112C158.78 98.0112 158.452 95.2864 158.817 93.7227C159.182 92.1589 163.098 90.9136 163.098 90.9136C163.098 90.9136 167.267 90.951 167.525 93.0204C167.782 95.0897 167.113 99.7341 167.113 99.7341V102.852L162.036 104.313L159.931 102.571L158.84 100.539L158.78 98.0112Z" fill="#1FE1E0"/>
<path d="M158.84 98.2407L158.929 101.134C158.929 101.134 159.275 106.574 160.754 108.054L161.385 109.29L161.53 110.133C161.593 110.797 161.809 111.438 162.162 112.005C162.798 113.166 162.868 110.662 162.868 110.662L162.831 109.959L163.435 107.768L164.174 109.145L164.74 110.24C164.778 110.899 164.937 111.545 165.208 112.146C165.533 111.859 165.726 111.451 165.741 111.017C165.757 110.6 165.708 110.183 165.596 109.781L167.122 105.601L167.145 99.7483C167.145 99.7483 166.584 102.614 165.957 102.834L165.325 101.869L163.084 101.513L161.254 102.019L160.463 102.768L159.528 101.125L159.163 98.8447L158.84 98.2407Z" fill="white"/>
<path d="M162.293 102.721L163.229 102.052L164.169 102.721H162.293V102.721Z" fill="#1FE1E0"/>
<path d="M158.11 94.1396C157.605 95.476 157.032 96.7855 156.393 98.063C155.945 98.6296 155.424 99.1348 154.844 99.5659L153.09 101.111L154.901 101.27L156.337 104.196L157.862 106.678L157.703 107.23C157.658 107.383 157.658 107.545 157.703 107.698L157.848 108.101L157.699 108.864C157.651 109.122 157.705 109.389 157.848 109.608L158.073 109.945V109.945C157.878 110.245 157.852 110.624 158.003 110.947C158.066 111.091 158.153 111.222 158.26 111.336C158.525 110.896 158.645 110.383 158.602 109.871L158.859 109.192C158.936 108.999 158.936 108.785 158.859 108.592L158.681 108.124L158.896 107.497C158.952 107.339 158.976 107.172 158.967 107.005L158.943 106.429L161.348 104.889L158.882 99.3599L158.906 94.4674L158.11 94.1396Z" fill="white"/>
<path d="M168.198 93.6899C168.198 93.6899 168.788 99.177 169.546 99.9589C170.304 100.741 170.627 100.525 170.627 100.525L171.637 101.162C171.637 101.162 169.696 102.628 169.546 102.983C169.452 103.336 169.425 103.703 169.466 104.065C169.466 104.065 169.42 104.847 169.092 105.001C169.3 105.331 169.404 105.716 169.392 106.106C169.364 106.455 169.221 106.785 168.984 107.042C169.193 107.45 169.225 107.926 169.073 108.358C169.243 108.75 169.187 109.203 168.928 109.543C169.142 109.728 169.222 110.024 169.13 110.292C169.037 110.621 168.9 110.936 168.722 111.228C168.722 111.228 168.095 110.221 168.255 109.711C168.067 109.34 167.996 108.921 168.049 108.508C168.049 108.508 167.656 107.646 167.932 107.267C167.932 107.267 167.361 106.069 167.464 105.558L166.678 105.657L166.954 101.186L167.118 99.7342C167.118 99.7342 167.347 97.5337 167.585 94.2096L168.198 93.6899Z" fill="white"/>
<path d="M168.048 93.231C168.006 93.1046 167.945 92.9641 167.88 92.8049C167.286 91.4519 165.826 89.0314 163.004 89.2046H162.794V89.2046C160.454 89.4574 159.191 91.3957 158.583 92.7581C158.517 92.9032 158.461 93.0343 158.414 93.1607C158.291 93.4656 158.187 93.7784 158.105 94.0971C158.105 94.0971 162.041 96.218 163.135 96.1477C163.135 96.1477 166.696 95.497 168.203 93.6477C168.198 93.6898 168.156 93.5119 168.048 93.231Z" fill="#55EEED"/>
<path d="M134.243 129.014C134.243 129.014 136.624 125.269 143.165 124.927C146.655 124.777 150.134 124.435 153.586 123.902L163.8 127.245C163.8 127.245 162.438 133.036 161.619 134.398C160.801 135.761 145.271 135.541 145.271 135.541L148.471 140.588C148.471 140.588 148.813 140.312 148.607 143.654C148.401 146.997 150.039 154.891 151.195 155.78C152.35 156.67 156.243 159.058 154.727 162.105C153.754 164.048 150.792 167.658 148.79 170.004C147.608 171.386 145.771 172.02 143.989 171.661L139.82 170.818C139.82 170.818 139.647 168.037 140.69 166.792C141.111 166.286 143.437 164.61 144.326 163.046C145.332 161.253 144.513 159.676 144.494 159.039C144.401 155.242 135.375 140.101 134.711 137.446C134.046 134.792 132.348 131.983 134.243 129.014Z" fill="#1FE1E0"/>
<path d="M172.1 124.613L181.505 125.69C181.505 125.69 188.902 129.473 188.902 130.704C188.902 131.936 187.667 138.415 187.667 138.415C187.667 138.415 188.439 142.039 187.901 144.352C187.363 146.665 183.119 161.857 183.119 161.857L185.51 167.176L191.827 171.263C191.827 171.263 191.359 175.35 187.204 175.43C187.204 175.43 181.888 174.657 181.196 173.112C180.877 172.373 180.516 171.652 180.115 170.954L176.185 168.257C176.185 168.257 176.11 163.706 176.802 162.784C177.495 161.862 178.73 155.377 177.958 150.752C177.186 146.126 174.645 141.73 178.491 137.882C178.491 137.882 170.94 137.882 165.47 134.178L159.855 134.951L156.079 128.78L172.1 124.613Z" fill="#1FE1E0"/>
<path d="M183.119 161.857C183.119 161.857 187.358 146.665 187.901 144.352C188.327 142.517 187.929 139.858 187.746 138.837H187.138C183.666 141.304 178.908 139.53 177.588 138.954C175.099 142.545 177.256 146.553 177.958 150.752C178.73 155.378 177.49 161.857 176.802 162.784C176.114 163.711 176.185 168.257 176.185 168.257L180.115 170.954C180.516 171.652 180.877 172.373 181.196 173.112C181.888 174.657 187.204 175.43 187.204 175.43C191.368 175.35 191.827 171.263 191.827 171.263L185.51 167.176L183.119 161.857Z" fill="#017E7D"/>
<path d="M134.233 135.845C134.411 136.384 134.584 136.913 134.701 137.442C135.366 140.096 144.392 155.233 144.485 159.034C144.485 159.671 145.323 161.249 144.317 163.042C143.428 164.624 141.102 166.319 140.681 166.787C139.638 168.033 139.811 170.814 139.811 170.814L143.98 171.656C145.762 172.015 147.599 171.381 148.78 169.999C150.783 167.658 154.774 164.98 155.747 163.037C157.263 159.999 152.346 156.665 151.185 155.776C150.025 154.886 148.378 146.988 148.598 143.65C148.818 140.312 148.462 140.583 148.462 140.583L145.959 136.636C144.248 137.171 142.482 137.512 140.695 137.652C138.838 137.746 135.876 136.571 134.233 135.845Z" fill="#017E7D"/>
<path d="M186.913 128.349C186.492 127.927 185.993 127.59 185.444 127.357L185.004 127.142C184.794 127.034 184.635 126.898 184.438 126.776C184.289 126.703 184.132 126.645 183.97 126.603C183.699 126.477 183.435 126.335 183.18 126.177C182.785 125.924 182.377 125.691 181.958 125.48C181.781 125.393 181.598 125.318 181.411 125.255C181.2 125.194 180.981 125.156 180.775 125.086C180.293 124.897 179.788 124.776 179.273 124.726C178.712 124.679 178.155 124.604 177.602 124.501C176.989 124.425 176.384 124.292 175.796 124.103C175.52 124.005 175.239 123.92 174.954 123.85C174.729 123.799 174.486 123.691 174.28 123.644C174.07 123.615 173.855 123.641 173.658 123.719C173.19 123.864 172.722 124.07 172.221 124.187C170.593 124.609 168.946 124.974 167.294 125.339C165.78 125.614 164.244 125.753 162.704 125.756C161.769 125.789 160.833 125.84 159.897 125.849C159.32 125.878 158.741 125.849 158.17 125.76C157.815 125.667 157.466 125.55 157.127 125.409C156.481 125.18 155.915 124.777 155.283 124.501C155.134 124.436 154.951 124.328 154.792 124.276C154.633 124.225 154.324 124.276 154.142 124.108L153.463 123.509C153.296 123.487 153.126 123.487 152.958 123.509L141.471 124.913H141.303L140.97 124.951C140.503 125.044 140.091 125.152 139.688 125.264C137.973 125.685 136.396 126.545 135.112 127.76C133.94 128.875 133.296 130.435 133.339 132.053C133.83 130.704 135.019 129.44 136.277 128.406C136.334 128.621 136.315 128.935 136.451 129.117C136.586 129.3 136.918 129.164 137.054 129.033C137.312 128.856 137.59 128.71 137.882 128.598C138.107 128.47 138.37 128.432 138.622 128.49C138.991 128.63 139.169 128.991 139.45 129.239C139.718 129.502 139.925 129.822 140.053 130.175C140.184 130.456 140.226 130.789 140.372 131.065C140.517 131.341 140.839 131.379 141.186 131.374C141.85 131.374 142.514 131.374 143.174 131.374C143.513 131.392 143.839 131.511 144.11 131.716C144.288 131.794 144.455 131.896 144.606 132.02C144.727 132.199 144.826 132.393 144.901 132.596C145.086 133.035 145.225 133.491 145.317 133.958C145.383 134.22 145.495 134.473 145.584 134.726C145.631 134.867 145.663 135.241 145.841 135.26C145.988 135.124 146.113 134.966 146.211 134.792C146.237 134.683 146.269 134.577 146.309 134.473C146.492 134.132 146.777 134.16 147.123 134.169C147.337 134.182 147.546 134.24 147.736 134.338C148.16 134.526 148.539 134.804 148.845 135.152C148.935 135.261 149.036 135.362 149.145 135.452C149.257 135.555 149.318 135.686 149.425 135.794C149.621 136.021 149.803 136.258 149.973 136.505C150.088 136.68 150.171 136.873 150.221 137.076C150.342 137.442 150.45 137.811 150.576 138.177C150.643 138.404 150.723 138.628 150.815 138.846C150.89 139.015 150.946 139.314 151.105 139.431C151.186 139.147 151.216 138.851 151.194 138.556C151.185 138.222 151.236 137.889 151.344 137.573C151.496 137.179 151.712 136.813 151.985 136.491C152.149 136.271 152.35 135.868 152.621 135.765C153.04 135.707 153.466 135.789 153.833 136C154.161 136.118 154.449 136.325 154.666 136.599C154.753 136.762 154.852 136.918 154.961 137.067C155.118 137.253 155.241 137.466 155.326 137.694C155.438 138.003 155.541 138.35 155.625 138.673C155.665 139.093 155.828 139.492 156.093 139.82C156.384 140.109 156.65 140.422 156.888 140.756C157.1 141.062 157.381 141.314 157.707 141.491C158.32 141.758 158.999 141.754 159.247 142.498C159.31 142.753 159.352 143.013 159.373 143.275C159.429 143.485 159.462 143.7 159.471 143.917C159.457 144.14 159.486 144.364 159.555 144.577C159.672 144.962 159.829 145.334 160.023 145.686C160.178 145.939 160.393 146.154 160.547 146.398C160.602 146.529 160.691 146.642 160.805 146.726C160.954 146.785 161.118 146.794 161.273 146.749C161.507 146.683 161.758 146.731 161.951 146.88C162.365 147.085 162.737 147.365 163.051 147.704C163.139 147.835 163.25 147.949 163.378 148.041C163.611 148.093 163.855 148.051 164.057 147.924C164.496 147.681 164.899 147.367 165.334 147.114C166.022 146.716 166.466 146.005 166.995 145.429C167.226 145.121 167.557 144.903 167.931 144.811C168.101 144.778 168.275 144.778 168.445 144.811C168.539 144.839 168.637 144.937 168.75 144.914C168.862 144.89 168.988 144.661 169.049 144.563C169.449 143.854 169.904 143.177 170.411 142.54C170.603 142.301 170.822 142.072 171.028 141.847C171.127 141.739 171.234 141.651 171.337 141.552C171.445 141.424 171.561 141.302 171.683 141.187C171.983 140.917 172.347 140.73 172.741 140.644C173.059 140.591 173.382 140.566 173.705 140.569C173.99 140.569 174.308 140.789 174.528 140.508C174.679 140.299 174.814 140.078 174.931 139.848C175.035 139.569 175.157 139.297 175.296 139.033C175.492 138.762 176.054 138.767 176.358 138.757C176.891 138.757 177.541 138.851 177.986 138.495C178.46 138.029 178.786 137.432 178.922 136.781C179.018 136.266 179.068 135.742 179.071 135.218C179.088 134.545 179.33 133.896 179.759 133.378C179.937 133.195 180.162 133.059 180.344 132.881C180.508 132.724 180.698 132.595 180.906 132.502C181.032 132.437 181.177 132.385 181.299 132.31C181.519 132.189 181.547 131.903 181.556 131.669C181.546 131.485 181.57 131.301 181.626 131.126C181.682 130.976 181.771 130.84 181.837 130.69C181.865 130.634 181.865 130.564 181.898 130.508C182.057 130.306 182.252 130.135 182.473 130.002C183.052 129.583 183.654 129.196 184.275 128.841C184.712 128.581 185.185 128.385 185.678 128.261C186.043 128.185 186.424 128.237 186.754 128.41C186.947 128.484 187.124 128.592 187.278 128.729C187.363 128.785 187.447 128.827 187.531 128.879C187.31 128.721 187.103 128.544 186.913 128.349V128.349Z" fill="#157AC1"/>
<path d="M187.564 128.944L187.751 129.08C187.695 129.026 187.632 128.981 187.564 128.944V128.944Z" fill="#157AC1"/>
<path d="M154.269 121.987C154.269 121.987 161.507 126.2 174.857 122.993L175.703 123.878L177.182 124.562C177.182 124.562 167.885 129.454 164.689 129.454C161.493 129.454 152.126 123.668 152.126 123.668L153.179 123.391L154.269 121.987Z" fill="#006362"/>
<path fill-rule="evenodd" clip-rule="evenodd" d="M162.237 129.801C162.635 130.305 163.237 130.605 163.879 130.62L163.87 130.634C164.52 130.618 165.128 130.31 165.526 129.796C165.839 129.412 166.077 128.972 166.228 128.499C166.566 127.476 166.618 126.38 166.378 125.33C166.218 124.4 165.746 123.553 165.04 122.928C164.771 122.692 164.425 122.562 164.067 122.563C163.193 122.539 162.376 122.995 161.938 123.752C161.427 124.587 161.18 125.556 161.226 126.533V126.678C161.215 126.823 161.215 126.969 161.226 127.114C161.279 128.092 161.632 129.031 162.237 129.801ZM162.855 124.309C163.094 123.873 163.56 123.611 164.057 123.635L164.071 123.607C164.174 123.603 164.274 123.642 164.347 123.715C164.871 124.186 165.217 124.822 165.33 125.517C165.527 126.378 165.485 127.277 165.208 128.116C165.1 128.456 164.928 128.774 164.703 129.052C164.513 129.324 164.21 129.496 163.879 129.52C163.558 129.505 163.26 129.345 163.07 129.085C162.601 128.478 162.334 127.74 162.307 126.973C162.3 126.875 162.3 126.776 162.307 126.678V126.496C162.261 125.728 162.452 124.964 162.855 124.309Z" fill="#006362"/>
<path d="M161.764 126.51C161.72 125.637 161.938 124.771 162.391 124.024C162.732 123.419 163.383 123.057 164.075 123.087C164.306 123.085 164.529 123.169 164.702 123.321C165.314 123.873 165.722 124.615 165.858 125.428C166.078 126.385 166.031 127.384 165.722 128.317C165.593 128.723 165.388 129.101 165.119 129.431C164.833 129.829 164.373 130.065 163.884 130.065C163.394 130.065 162.934 129.829 162.648 129.431C162.111 128.74 161.801 127.899 161.759 127.025C161.752 126.853 161.754 126.681 161.764 126.51Z" fill="#2AF4F3"/>
<path d="M176.175 141.075C176.058 141.505 176.182 141.964 176.498 142.278C176.742 142.645 177.038 142.975 177.378 143.256C177.757 143.551 178.117 143.87 178.491 144.169C178.655 144.3 178.833 144.417 178.987 144.563C179.142 144.708 179.291 144.867 179.455 145.003C179.619 145.138 179.825 145.255 179.993 145.405C180.158 145.558 180.339 145.693 180.531 145.808C180.887 146.014 181.28 146.14 181.64 146.332C181.842 146.44 182.038 146.571 182.249 146.669C182.459 146.768 182.717 146.833 182.932 146.917C183.147 147.002 183.315 147.091 183.517 147.156C183.718 147.222 183.952 147.283 184.172 147.339C184.7 147.465 185.22 147.643 185.753 147.732C186.256 147.779 186.762 147.779 187.265 147.732C187.461 147.732 187.62 147.573 187.62 147.376C187.62 147.18 187.461 147.02 187.265 147.02C186.857 147.02 186.45 147.081 186.043 147.049C185.609 146.984 185.182 146.882 184.766 146.744C184.347 146.655 183.935 146.539 183.531 146.398C183.353 146.328 183.184 146.243 182.997 146.182C182.784 146.119 182.577 146.034 182.38 145.93C182.024 145.728 181.673 145.555 181.303 145.391C181.126 145.316 180.954 145.228 180.789 145.129C180.62 145.021 180.485 144.876 180.321 144.759C180.157 144.642 179.998 144.539 179.853 144.417C179.708 144.296 179.572 144.141 179.427 144.01C179.282 143.879 179.09 143.753 178.922 143.617L178.417 143.186C178.027 142.897 177.663 142.576 177.326 142.226C177.195 142.072 177.078 141.899 176.961 141.73C176.844 141.561 176.76 141.449 176.84 141.262C176.872 141.081 176.761 140.905 176.584 140.856C176.406 140.807 176.221 140.902 176.157 141.075H176.175Z" fill="#2E9898"/>
<path d="M177.154 148.06C177.622 148.077 178.091 148.063 178.558 148.018C178.993 147.951 179.418 147.833 179.826 147.667C180.247 147.508 180.64 147.297 181.052 147.114C181.463 146.932 181.842 146.782 182.226 146.59C183.02 146.184 183.771 145.7 184.467 145.143C184.809 144.876 185.174 144.638 185.497 144.352C185.82 144.066 186.142 143.786 186.479 143.509C187.266 142.874 187.97 142.142 188.575 141.332C188.669 141.163 188.611 140.951 188.445 140.853C188.278 140.755 188.064 140.808 187.963 140.972C187.46 141.647 186.878 142.26 186.231 142.798C185.913 143.065 185.581 143.322 185.267 143.598C185.118 143.737 184.962 143.869 184.8 143.992C184.622 144.132 184.435 144.258 184.252 144.394C183.588 144.912 182.887 145.382 182.156 145.799C181.789 145.999 181.411 146.179 181.024 146.337C180.649 146.496 180.289 146.684 179.919 146.847C179.495 147.043 179.049 147.19 178.59 147.283C178.112 147.351 177.627 147.37 177.145 147.339C176.948 147.339 176.789 147.498 176.789 147.695C176.789 147.891 176.948 148.051 177.145 148.051L177.154 148.06Z" fill="#2E9898"/>
<path d="M177.326 151.075C177.397 151.188 177.462 151.305 177.518 151.426C177.591 151.557 177.674 151.682 177.766 151.8C177.935 152.036 178.116 152.262 178.309 152.479C178.491 152.685 178.65 152.905 178.838 153.107C179.053 153.308 179.286 153.49 179.535 153.65C179.776 153.85 180.032 154.03 180.302 154.188C180.559 154.324 180.831 154.418 181.093 154.539C181.355 154.661 181.593 154.811 181.851 154.933C182.145 155.059 182.446 155.167 182.754 155.256C183.091 155.368 183.428 155.476 183.755 155.611C184.083 155.747 184.42 155.888 184.766 155.995C184.889 156.029 185.02 155.994 185.11 155.904C185.201 155.815 185.237 155.683 185.204 155.56C185.172 155.437 185.076 155.341 184.953 155.307C184.377 155.134 183.835 154.872 183.264 154.68C182.978 154.581 182.688 154.497 182.408 154.399C182.15 154.296 181.901 154.173 181.664 154.029C181.42 153.903 181.168 153.804 180.915 153.697C180.658 153.579 180.415 153.433 180.19 153.261C179.965 153.093 179.722 152.938 179.502 152.756C179.309 152.576 179.132 152.381 178.973 152.17C178.795 151.95 178.599 151.744 178.43 151.515C178.331 151.391 178.24 151.259 178.159 151.122C178.093 150.982 178.02 150.846 177.939 150.714C177.836 150.561 177.637 150.508 177.471 150.588C177.313 150.687 177.258 150.891 177.345 151.056L177.326 151.075Z" fill="#2E9898"/>
<path d="M178.108 156.609C178.44 156.609 178.772 156.637 179.104 156.609C179.263 156.609 179.422 156.557 179.572 156.548C179.722 156.538 179.895 156.548 180.04 156.548C180.347 156.513 180.646 156.428 180.924 156.295C181.205 156.164 181.448 155.963 181.72 155.827C182.013 155.689 182.29 155.518 182.543 155.317C182.782 155.111 183.011 154.933 183.278 154.731C183.774 154.324 184.214 153.86 184.714 153.448C185.008 153.237 185.291 153.01 185.561 152.77C185.805 152.517 186.001 152.227 186.23 151.964C186.361 151.823 186.361 151.605 186.23 151.463C186.09 151.325 185.865 151.325 185.725 151.463C185.528 151.688 185.355 151.932 185.159 152.156C184.957 152.367 184.735 152.557 184.494 152.723C184.246 152.915 184.027 153.121 183.788 153.331C183.549 153.542 183.292 153.748 183.058 153.973C182.836 154.176 182.603 154.367 182.361 154.544C182.154 154.729 181.932 154.897 181.696 155.045C181.416 155.19 181.154 155.345 180.887 155.513C180.663 155.661 180.414 155.768 180.152 155.827C179.998 155.852 179.841 155.863 179.684 155.86C179.512 155.869 179.34 155.888 179.17 155.916C178.807 155.942 178.442 155.942 178.08 155.916C177.9 155.936 177.765 156.089 177.765 156.269C177.765 156.45 177.9 156.602 178.08 156.623L178.108 156.609Z" fill="#2E9898"/>
<path d="M134.248 137.1C134.224 137.484 134.575 137.816 134.837 138.036C135.174 138.341 135.534 138.626 135.89 138.917C136.115 139.094 136.33 139.272 136.564 139.441C136.798 139.609 136.938 139.74 137.135 139.909C137.306 140.003 137.47 140.11 137.626 140.227C137.798 140.423 138.017 140.571 138.262 140.658C138.763 140.836 139.231 141.126 139.736 141.276C139.993 141.356 140.241 141.426 140.494 141.529L141.294 141.852C141.842 142.053 142.398 142.231 142.951 142.418C143.503 142.606 144.059 142.816 144.616 143.008C144.916 143.111 145.22 143.219 145.529 143.294C145.838 143.369 146.156 143.416 146.465 143.486C147.099 143.598 147.744 143.636 148.388 143.598C148.567 143.578 148.702 143.426 148.702 143.245C148.702 143.064 148.567 142.912 148.388 142.891C147.85 142.93 147.311 142.909 146.778 142.83C146.259 142.713 145.739 142.629 145.234 142.465C144.167 142.119 143.114 141.73 142.052 141.37C141.552 141.197 141.065 141.005 140.578 140.799C140.335 140.696 140.078 140.653 139.834 140.56C139.591 140.466 139.366 140.363 139.142 140.255C138.917 140.148 138.674 140.059 138.454 139.975C138.234 139.89 138.112 139.684 137.925 139.549C137.738 139.413 137.635 139.408 137.509 139.305C137.298 139.132 137.088 138.968 136.868 138.809C136.4 138.476 135.988 138.107 135.558 137.741C135.42 137.63 135.289 137.511 135.165 137.386C135.105 137.328 135.05 137.265 135.001 137.198L134.949 137.1C134.949 137.137 134.949 137.133 134.949 137.1C134.949 137.147 134.949 137.151 134.949 137.1C134.947 136.904 134.789 136.747 134.594 136.744C134.4 136.749 134.243 136.906 134.238 137.1H134.248Z" fill="#2E9898"/>
<path d="M138.028 145.19C138.964 145.19 139.899 145.19 140.835 145.19C141.273 145.202 141.711 145.145 142.131 145.021C142.536 144.901 142.929 144.744 143.306 144.553C143.666 144.352 144.045 144.179 144.405 143.973C144.764 143.76 145.091 143.498 145.379 143.196C145.969 142.596 146.522 141.962 147.035 141.295C147.318 140.944 147.567 140.568 147.779 140.171C147.882 139.965 147.957 139.745 148.055 139.539C148.167 139.328 148.255 139.105 148.317 138.874C148.42 138.43 147.732 138.238 147.634 138.687C147.593 138.849 147.533 139.006 147.456 139.155C147.367 139.333 147.302 139.52 147.217 139.703C147.053 140.048 146.852 140.375 146.618 140.677C146.144 141.304 145.633 141.903 145.088 142.47C144.844 142.755 144.566 143.01 144.26 143.228C143.928 143.453 143.554 143.598 143.207 143.79C142.547 144.208 141.789 144.447 141.008 144.483C140.012 144.483 139.015 144.483 138.014 144.483C137.817 144.483 137.658 144.642 137.658 144.839C137.658 145.035 137.817 145.195 138.014 145.195L138.028 145.19Z" fill="#2E9898"/>
<path d="M141.219 150.771C141.342 150.787 141.462 150.822 141.575 150.874C141.7 150.911 141.822 150.958 141.939 151.014C142.22 151.15 142.501 151.29 142.786 151.417C143.376 151.679 143.942 151.983 144.55 152.189C144.848 152.287 145.151 152.366 145.458 152.428C145.744 152.493 146.024 152.583 146.296 152.695C146.603 152.802 146.915 152.893 147.231 152.966C147.549 153.071 147.877 153.138 148.209 153.168C148.57 153.168 148.93 153.168 149.29 153.168H150.469C150.666 153.168 150.825 153.008 150.825 152.812C150.825 152.615 150.666 152.456 150.469 152.456C149.805 152.456 149.14 152.456 148.476 152.456C148.159 152.455 147.844 152.408 147.54 152.316C147.222 152.222 146.904 152.152 146.604 152.049C146.337 151.939 146.064 151.845 145.786 151.768C145.477 151.698 145.173 151.637 144.873 151.543C144.288 151.326 143.715 151.077 143.156 150.799C142.843 150.658 142.538 150.499 142.22 150.359C142.068 150.289 141.912 150.228 141.752 150.176C141.589 150.107 141.415 150.066 141.238 150.054C140.77 150.054 140.77 150.785 141.238 150.766L141.219 150.771Z" fill="#2E9898"/>
<path d="M143.287 156.033C143.58 156.012 143.86 155.904 144.092 155.724C144.19 155.649 144.284 155.574 144.387 155.508C144.49 155.443 144.654 155.368 144.78 155.284C145.048 155.093 145.291 154.868 145.5 154.614C145.702 154.38 145.87 154.095 146.085 153.875C146.184 153.776 146.31 153.715 146.408 153.612C146.506 153.509 146.661 153.322 146.782 153.177C147.007 152.915 147.25 152.657 147.447 152.386C147.882 151.838 148.219 151.234 148.607 150.653C148.812 150.327 148.995 149.988 149.155 149.637C149.328 149.282 149.529 148.945 149.73 148.603C149.824 148.434 149.766 148.221 149.6 148.123C149.433 148.025 149.219 148.078 149.117 148.242C148.954 148.528 148.785 148.809 148.649 149.104C148.514 149.399 148.369 149.684 148.214 149.965C148.06 150.246 147.859 150.522 147.69 150.808C147.522 151.094 147.353 151.351 147.166 151.613C146.979 151.875 146.768 152.119 146.563 152.362C146.359 152.632 146.139 152.888 145.903 153.13C145.805 153.228 145.678 153.289 145.58 153.392C145.482 153.495 145.398 153.631 145.309 153.748C145.122 154 144.915 154.236 144.691 154.455C144.464 154.638 144.223 154.804 143.97 154.951C143.774 155.087 143.559 155.307 143.306 155.321C142.838 155.349 142.838 156.061 143.306 156.033H143.287Z" fill="#2E9898"/>
<path d="M167.88 92.8053C166.383 94.2473 164.034 94.8746 163.29 95.0432L163.22 89.1909H163.004L162.794 89.2143L162.864 95.076C161.835 94.9964 159.766 93.634 158.587 92.7678C158.522 92.913 158.466 93.044 158.419 93.1705C158.793 93.442 159.308 93.8025 159.86 94.1536C161.264 95.0525 162.312 95.5067 162.976 95.5067H163.117C163.823 95.3678 164.515 95.1656 165.185 94.9027C166.233 94.5217 167.203 93.9539 168.048 93.2266C168.006 93.1049 167.945 92.9645 167.88 92.8053Z" fill="#42D7D6"/>
<path d="M167.88 92.8053C166.383 94.2473 164.034 94.8746 163.29 95.0432L163.22 89.1909H163.004L162.794 89.2143L162.864 95.076C161.835 94.9964 159.766 93.634 158.587 92.7678C158.522 92.913 158.466 93.044 158.419 93.1705C158.793 93.442 159.308 93.8025 159.86 94.1536C161.264 95.0525 162.312 95.5067 162.976 95.5067H163.117C163.823 95.3678 164.515 95.1656 165.185 94.9027C166.233 94.5217 167.203 93.9539 168.048 93.2266C168.006 93.1049 167.945 92.9645 167.88 92.8053Z" fill="#42D7D6"/>
<path d="M166.078 91.9481C166.265 91.7515 166.513 91.6297 166.691 91.4191C166.775 91.3318 166.852 91.2379 166.92 91.1382C166.948 91.0913 166.973 91.0428 166.995 90.993C167.021 90.8858 167.031 90.7753 167.023 90.6653C167.023 90.4874 167.07 90.3095 167.08 90.1316C167.089 89.9537 167.08 89.7898 167.08 89.6212C167.097 89.4407 167.104 89.2595 167.103 89.0782C167.103 88.8207 167.126 88.5725 167.136 88.3197C167.156 87.808 167.209 87.2982 167.295 86.7934C167.353 86.4046 167.377 86.0113 167.365 85.6183V84.0078C167.365 83.8579 167.398 83.7222 167.398 83.5723C167.398 83.4225 167.43 83.2914 167.426 83.1416V82.7296C167.426 82.4721 167.426 82.2193 167.426 81.9665C167.432 81.8749 167.453 81.7849 167.487 81.6996C167.519 81.5873 167.524 81.4702 167.618 81.3906C167.736 81.5038 167.844 81.6276 167.94 81.7605C167.989 81.8558 168.031 81.9543 168.067 82.0554C168.173 82.2763 168.247 82.5112 168.287 82.753C168.319 82.9731 168.343 83.1931 168.394 83.4085C168.446 83.6238 168.441 83.769 168.469 83.9516C168.495 84.0925 168.529 84.2317 168.572 84.3683C168.596 84.4525 168.624 84.6211 168.689 84.6773C168.759 84.6351 168.787 84.5321 168.815 84.4619C168.843 84.3941 168.876 84.3284 168.914 84.2653C168.965 84.1763 169.031 84.092 169.082 84.0031C169.139 83.8828 169.228 83.7806 169.339 83.7081C169.522 83.6051 169.63 83.8533 169.658 84.0031C169.714 84.3402 169.742 84.6819 169.793 85.0237C169.793 85.0705 169.793 85.1735 169.854 85.1969C169.915 85.2203 170.018 85.108 170.051 85.0705C170.102 85.0218 170.158 84.9794 170.219 84.9441H170.28L170.345 84.8926C170.43 84.8598 170.547 84.9488 170.579 85.019C170.647 85.154 170.707 85.2932 170.757 85.4357C170.795 85.5712 170.809 85.7121 170.799 85.8524C170.802 86.0778 170.787 86.3032 170.757 86.5266C170.745 86.6647 170.718 86.8012 170.678 86.9339C170.645 87.0275 170.617 87.0416 170.678 87.1165C170.784 87.2025 170.868 87.3135 170.921 87.4395C170.94 87.5574 170.94 87.6775 170.921 87.7953C170.921 87.872 170.898 87.947 170.855 88.0107C170.817 88.0522 170.788 88.1018 170.771 88.1558C170.907 88.198 171.122 88.0435 171.239 88.1558C171.279 88.2029 171.301 88.2627 171.3 88.3244C171.32 88.4027 171.332 88.4826 171.337 88.5632C171.36 88.828 171.343 89.0948 171.286 89.3544C171.248 89.4501 171.199 89.5411 171.141 89.6259C171.123 89.6574 171.103 89.6871 171.08 89.7149C171.043 89.7523 170.991 89.7617 170.963 89.8085C171.029 89.8085 171.099 89.7383 171.169 89.7851C171.239 89.8319 171.249 89.9958 171.263 90.0707C171.291 90.2644 171.272 90.4621 171.206 90.6466C171.085 91.0901 170.851 91.4948 170.528 91.8217C170.472 91.8732 170.378 91.92 170.378 91.9996C170.408 92.0801 170.449 92.1558 170.5 92.2243C170.549 92.3083 170.602 92.3895 170.659 92.4678C170.724 92.5614 170.762 92.6597 170.818 92.7581C170.874 92.8564 170.921 92.8704 170.818 92.9547C170.768 92.9948 170.715 93.0308 170.659 93.0624L170.561 93.1513C170.492 93.195 170.413 93.2207 170.331 93.2262C170.161 93.2348 169.991 93.2027 169.835 93.1326C169.864 93.2262 169.938 93.2965 169.976 93.3901C170.005 93.4609 170.027 93.5347 170.041 93.6102C170.102 93.902 170.102 94.2032 170.041 94.495C170.035 94.6157 169.975 94.7272 169.878 94.7993C169.824 94.8403 169.761 94.8691 169.695 94.8836C169.442 94.9164 169.227 94.6214 169.012 94.5184C168.937 94.6167 169.087 94.8836 168.825 94.8368C168.708 94.7963 168.6 94.7344 168.507 94.6542C168.366 94.5606 168.226 94.4763 168.086 94.378C167.829 94.2012 167.595 93.9937 167.388 93.76C167.276 93.6242 167.215 93.5072 167.023 93.5072C166.713 93.5116 166.431 93.3261 166.312 93.039C166.186 92.7815 166.031 92.538 165.924 92.2758" fill="#2E9898"/>
<path d="M160.44 92.0984H160.202C160.139 92.0878 160.078 92.0705 160.019 92.0469C159.941 92.0371 159.867 92.0064 159.804 91.9579C159.781 91.9579 159.767 91.9158 159.739 91.9018C159.71 91.8877 159.668 91.9018 159.64 91.8737C159.612 91.8456 159.533 91.6864 159.509 91.6021C159.483 91.4786 159.44 91.359 159.383 91.2463C159.348 91.1864 159.307 91.13 159.261 91.0778C159.209 90.9911 159.168 90.8983 159.14 90.8015C159.042 90.566 158.962 90.3234 158.901 90.0759C158.896 89.9838 158.881 89.8926 158.854 89.8043C158.798 89.6732 158.737 89.5515 158.69 89.4204C158.597 89.1723 158.527 88.9194 158.419 88.6807C158.311 88.4419 158.232 88.1095 158.101 87.8379C157.987 87.5978 157.898 87.3469 157.834 87.0889C157.8 86.9352 157.783 86.7782 157.783 86.6207C157.775 86.4336 157.753 86.2474 157.717 86.0635C157.694 85.8903 157.656 85.7124 157.633 85.5392C157.626 85.4004 157.626 85.2613 157.633 85.1225V84.1346C157.622 83.9626 157.63 83.7899 157.656 83.6196C157.684 83.5026 157.694 83.3809 157.731 83.2638C157.769 83.1468 157.792 83.0485 157.815 82.9361C157.839 82.8237 157.713 82.7582 157.577 82.7863C157.469 82.8206 157.368 82.8729 157.277 82.9408C157.132 83.0349 157.014 83.1657 156.936 83.32C156.882 83.434 156.84 83.5533 156.81 83.6758C156.785 83.7461 156.757 83.8149 156.725 83.8818C156.691 83.969 156.669 84.0603 156.66 84.1534C156.627 84.3172 156.566 84.4717 156.547 84.6215C156.532 84.6783 156.521 84.7363 156.515 84.7948C156.517 84.8384 156.517 84.8822 156.515 84.9259C156.503 84.9513 156.493 84.978 156.487 85.0055C156.487 85.0289 156.487 85.0476 156.487 85.071C156.487 85.0944 156.384 85.071 156.337 85.071L156.009 85.0008C155.752 84.9352 155.509 84.7854 155.308 85.0382C155.177 85.1807 155.147 85.3891 155.233 85.5626C155.276 85.654 155.325 85.7431 155.378 85.8295C155.44 85.8964 155.492 85.9721 155.532 86.0542C155.579 86.1619 155.532 86.1853 155.415 86.2274C155.204 86.3101 154.978 86.3514 154.751 86.3491C154.592 86.3491 154.437 86.3819 154.283 86.4006C154.128 86.4194 154.114 86.4006 154.077 86.5083C154.054 86.5794 154.043 86.6537 154.044 86.7284C154.036 86.8563 154.067 86.9836 154.133 87.0935L154.311 87.3557C154.386 87.4587 154.437 87.5664 154.521 87.6647C154.547 87.6978 154.577 87.7277 154.61 87.7537C154.643 87.7818 154.671 87.8333 154.709 87.8567C154.746 87.8801 154.844 87.8988 154.882 87.9503C154.643 88.1563 154.325 88.3342 154.259 88.6526C154.234 88.8093 154.277 88.9693 154.376 89.0927C154.451 89.1635 154.536 89.2219 154.629 89.2659L154.826 89.3642V89.3642C154.746 89.4712 154.674 89.5839 154.61 89.7013C154.558 89.8516 154.536 90.0106 154.545 90.1695C154.534 90.31 154.561 90.4509 154.624 90.5768C154.667 90.647 154.723 90.7079 154.765 90.7781C154.797 90.8371 154.844 90.887 154.9 90.9233C154.961 90.9654 155.013 91.0029 155.069 91.0497C155.125 91.0965 155.251 91.148 155.326 91.2135C155.326 91.2838 155.167 91.3821 155.12 91.4383C155.049 91.523 154.994 91.6197 154.957 91.7239C154.933 91.8609 154.947 92.0019 154.999 92.1312C155.03 92.2104 155.08 92.2811 155.144 92.3372C155.187 92.3962 155.245 92.4429 155.312 92.4729C155.376 92.4823 155.44 92.4823 155.504 92.4729C155.601 92.4598 155.694 92.4297 155.78 92.384C155.814 92.3675 155.845 92.3471 155.874 92.3231C155.902 92.295 155.925 92.2482 155.967 92.2388C155.979 92.3337 155.979 92.4296 155.967 92.5244V92.8896C155.967 93.0488 156.005 93.1939 156.019 93.3578C156.033 93.5217 156.094 93.5732 156.229 93.5732C156.375 93.5685 156.518 93.5249 156.641 93.4468C156.697 93.5016 156.764 93.5432 156.838 93.5685C156.838 93.62 156.838 93.6668 156.838 93.7136V94.0975C156.844 94.2012 156.869 94.3029 156.912 94.3972C156.936 94.4533 156.945 94.5236 157.011 94.5376H157.114C157.235 94.4923 157.346 94.4239 157.441 94.3363C157.549 94.2567 157.642 94.1678 157.755 94.0928C157.797 94.2334 157.849 94.371 157.909 94.5048C157.979 94.6593 158.251 94.7062 158.414 94.7015C158.705 94.7015 158.812 94.4346 158.92 94.2333C158.985 94.1163 159.009 93.9852 159.065 93.8634C159.121 93.7417 159.144 93.6481 159.238 93.6247C159.406 93.5872 159.579 93.7089 159.748 93.6902C159.916 93.6715 159.987 93.4514 160.057 93.3531C160.127 93.2548 160.169 93.1658 160.23 93.0816C160.294 93.018 160.35 92.9473 160.398 92.8709C160.446 92.7821 160.482 92.6878 160.506 92.59C160.543 92.4214 160.567 92.2576 160.595 92.089L160.44 92.0984Z" fill="#2E9898"/>
<path d="M167.44 115.792C169.19 115.666 170.978 115.708 172.686 115.362C174.674 114.964 176.087 113.681 177.023 111.808C177.374 111.097 178.179 110.614 178.778 110.024L179.03 110.305C178.978 110.413 178.911 110.514 178.834 110.605C177.201 112.3 177.22 113.086 179.302 114.21C180.434 114.828 181.791 115.043 183.045 115.39C183.466 115.502 183.934 115.446 184.369 115.558C181.688 116.2 180.013 115.727 177.252 113.578C176.115 116.677 174.96 119.702 174.941 123.045L174.534 122.974C174.646 121.195 174.726 119.416 174.885 117.642C174.978 116.56 174.613 116.237 173.504 116.237C171.497 116.289 169.49 116.139 167.478 116.073L167.44 115.792Z" fill="#2E9898"/>
<path d="M164.52 116.767V120.348L165.456 120.447V120.812L162.452 121.008C162.452 120.849 162.424 120.685 162.405 120.54L163.931 120.283C163.875 119.182 163.819 118.078 163.744 116.579L158.644 118.653C160.258 115.54 166.546 115.058 169.227 118.284C168.485 117.895 167.721 117.549 166.939 117.249C166.143 117.042 165.335 116.881 164.52 116.767Z" fill="#2E9898"/>
<path d="M188.384 123.368C188.482 122.577 188.59 121.79 188.683 121.027C188.777 120.264 188.847 119.468 188.945 118.518C189.759 120.283 188.913 121.832 188.786 123.405L188.384 123.368Z" fill="#2E9898"/>
<path d="M190.54 123.906C190.704 122.37 190.868 120.83 191.008 119.294H191.354C191.223 120.835 191.097 122.38 190.971 123.92L190.54 123.906Z" fill="#2E9898"/>
<path d="M192.735 118.429C193.421 119.696 193.421 121.225 192.735 122.493V118.429Z" fill="#2E9898"/>
<path d="M159.42 115.792C157.665 115.666 155.882 115.708 154.175 115.362C152.186 114.964 150.773 113.681 149.837 111.808C149.481 111.097 148.681 110.614 148.082 110.024L147.825 110.305C147.881 110.411 147.947 110.511 148.022 110.605C149.659 112.3 149.636 113.086 147.577 114.21C146.445 114.828 145.088 115.043 143.834 115.39C143.413 115.502 142.945 115.446 142.51 115.558C145.191 116.2 146.866 115.727 149.627 113.578C150.764 116.677 153.529 118.967 153.548 122.309C153.683 122.286 155.297 122.412 155.419 122.389C155.307 120.61 153.459 119.688 153.3 117.913C153.206 116.836 152.251 116.237 153.356 116.261C155.363 116.312 157.375 116.162 159.382 116.097L159.42 115.792Z" fill="#2E9898"/>
<path d="M138.477 123.368C138.374 122.577 138.271 121.79 138.178 121.027C138.084 120.264 138.014 119.468 137.916 118.518C137.102 120.283 137.949 121.832 138.075 123.405L138.477 123.368Z" fill="#2E9898"/>
<path d="M136.32 123.906L135.829 119.294H135.487C135.614 120.835 135.745 122.38 135.871 123.92L136.32 123.906Z" fill="#2E9898"/>
<path d="M134.125 118.429C133.44 119.696 133.44 121.225 134.125 122.493V118.429Z" fill="#2E9898"/>
<path d="M176.531 133.228C173.574 138.013 168.277 140.223 163.519 138.495C166.167 138.598 168.665 139.071 170.794 137.662C172.806 136.346 174.608 134.736 176.531 133.228Z" fill="#095F93"/>
<path d="M172.227 134.417L173.771 131.219C174.126 132.263 173.813 133.073 172.227 134.417Z" fill="#095F93"/>
<path d="M182.749 173.58C181.425 172.953 180.798 170.654 180.798 170.654L176.185 167.592C176.185 168 176.185 168.257 176.185 168.257L180.115 170.954C180.516 171.652 180.877 172.373 181.196 173.112C181.888 174.657 187.204 175.43 187.204 175.43C187.678 175.424 188.15 175.356 188.607 175.228C189.165 175.068 189.684 174.796 190.133 174.428C190.212 174.362 190.282 174.287 190.353 174.222C187.026 175.57 183.928 174.137 182.749 173.58Z" fill="#006362"/>
<path d="M156.004 161.356L155.864 161.52L151.821 166.44C151.821 166.44 147.985 170.345 145.654 170.893C143.905 171.305 141.111 170.598 139.829 170.219C139.829 170.598 139.829 170.851 139.829 170.851L143.998 171.693C144.654 171.827 145.331 171.827 145.987 171.693C146.122 171.665 146.253 171.633 146.389 171.595C147.326 171.319 148.163 170.778 148.799 170.036C150.801 167.695 154.793 165.017 155.766 163.074C156.031 162.543 156.114 161.939 156.004 161.356V161.356Z" fill="#006362"/>
<g style="mix-blend-mode:multiply">
<rect x="-74.0146" y="-3.90234" width="475.349" height="225.148" fill="url(#paint46_radial)"/>
</g>
<defs>
<linearGradient id="paint0_linear" x1="8.53319" y1="226.603" x2="78.51" y2="222.33" gradientUnits="userSpaceOnUse">
<stop stop-color="#252B78"/>
<stop offset="1" stop-color="#0A0C1C"/>
</linearGradient>
<linearGradient id="paint1_linear" x1="294.472" y1="215.022" x2="363.424" y2="211.265" gradientUnits="userSpaceOnUse">
<stop stop-color="#252B78"/>
<stop offset="1" stop-color="#0A0C1C"/>
</linearGradient>
<linearGradient id="paint2_linear" x1="261.359" y1="190.505" x2="331.737" y2="184.878" gradientUnits="userSpaceOnUse">
<stop offset="0.36" stop-color="#252B78"/>
<stop offset="1" stop-color="#0A0C1C"/>
</linearGradient>
<linearGradient id="paint3_linear" x1="186.611" y1="154.596" x2="256.989" y2="148.968" gradientUnits="userSpaceOnUse">
<stop stop-color="#252B78"/>
<stop offset="1" stop-color="#0A0C1C"/>
</linearGradient>
<linearGradient id="paint4_linear" x1="210.908" y1="297.251" x2="286.509" y2="294.713" gradientUnits="userSpaceOnUse">
<stop offset="0.5" stop-color="#252B78"/>
<stop offset="1" stop-color="#0A0C1C"/>
</linearGradient>
<linearGradient id="paint5_linear" x1="93.0205" y1="297.251" x2="168.621" y2="294.713" gradientUnits="userSpaceOnUse">
<stop offset="0.68" stop-color="#252B78"/>
<stop offset="1" stop-color="#0A0C1C"/>
</linearGradient>
<linearGradient id="paint6_linear" x1="19.8187" y1="295.259" x2="95.4199" y2="292.721" gradientUnits="userSpaceOnUse">
<stop stop-color="#252B78"/>
<stop offset="1" stop-color="#0A0C1C"/>
</linearGradient>
<linearGradient id="paint7_linear" x1="176.788" y1="320.766" x2="251.897" y2="318.782" gradientUnits="userSpaceOnUse">
<stop stop-color="#252B78"/>
<stop offset="1" stop-color="#0A0C1C"/>
</linearGradient>
<linearGradient id="paint8_linear" x1="60.8095" y1="308.088" x2="136.142" y2="305.854" gradientUnits="userSpaceOnUse">
<stop stop-color="#252B78"/>
<stop offset="1" stop-color="#0A0C1C"/>
</linearGradient>
<linearGradient id="paint9_linear" x1="116.129" y1="308.074" x2="191.457" y2="305.841" gradientUnits="userSpaceOnUse">
<stop stop-color="#252B78"/>
<stop offset="1" stop-color="#0A0C1C"/>
</linearGradient>
<linearGradient id="paint10_linear" x1="276.821" y1="-182.15" x2="201.488" y2="-179.916" gradientUnits="userSpaceOnUse">
<stop stop-color="#252B78"/>
<stop offset="1" stop-color="#0A0C1C"/>
</linearGradient>
<linearGradient id="paint11_linear" x1="237.605" y1="308.088" x2="312.938" y2="305.854" gradientUnits="userSpaceOnUse">
<stop stop-color="#252B78"/>
<stop offset="1" stop-color="#0A0C1C"/>
</linearGradient>
<linearGradient id="paint12_linear" x1="240.526" y1="297.251" x2="316.127" y2="294.713" gradientUnits="userSpaceOnUse">
<stop stop-color="#252B78"/>
<stop offset="1" stop-color="#0A0C1C"/>
</linearGradient>
<linearGradient id="paint13_linear" x1="287.148" y1="297.203" x2="362.745" y2="294.665" gradientUnits="userSpaceOnUse">
<stop stop-color="#252B78"/>
<stop offset="1" stop-color="#0A0C1C"/>
</linearGradient>
<linearGradient id="paint14_linear" x1="86.0106" y1="280.51" x2="161.606" y2="277.973" gradientUnits="userSpaceOnUse">
<stop stop-color="#252B78"/>
<stop offset="1" stop-color="#0A0C1C"/>
</linearGradient>
<linearGradient id="paint15_linear" x1="128.464" y1="297.251" x2="204.064" y2="294.713" gradientUnits="userSpaceOnUse">
<stop stop-color="#252B78"/>
<stop offset="1" stop-color="#0A0C1C"/>
</linearGradient>
<linearGradient id="paint16_linear" x1="57.0729" y1="274" x2="132.669" y2="271.462" gradientUnits="userSpaceOnUse">
<stop stop-color="#252B78"/>
<stop offset="1" stop-color="#0A0C1C"/>
</linearGradient>
<linearGradient id="paint17_linear" x1="-23.0469" y1="297.251" x2="52.5535" y2="294.713" gradientUnits="userSpaceOnUse">
<stop stop-color="#252B78"/>
<stop offset="1" stop-color="#0A0C1C"/>
</linearGradient>
<linearGradient id="paint18_linear" x1="56.7759" y1="-191.614" x2="-32.3835" y2="-187.819" gradientUnits="userSpaceOnUse">
<stop stop-color="#252B78"/>
<stop offset="1" stop-color="#0A0C1C"/>
</linearGradient>
<linearGradient id="paint19_linear" x1="194.213" y1="297.251" x2="269.813" y2="294.713" gradientUnits="userSpaceOnUse">
<stop stop-color="#252B78"/>
<stop offset="1" stop-color="#0A0C1C"/>
</linearGradient>
<linearGradient id="paint20_linear" x1="150.687" y1="226.603" x2="220.663" y2="222.33" gradientUnits="userSpaceOnUse">
<stop stop-color="#252B78"/>
<stop offset="1" stop-color="#0A0C1C"/>
</linearGradient>
<linearGradient id="paint21_linear" x1="413.185" y1="194.396" x2="413.185" y2="-8.15332" gradientUnits="userSpaceOnUse">
<stop stop-color="#15C7B6"/>
<stop offset="0.63" stop-color="#2D3493"/>
<stop offset="1" stop-color="#0A0C1C"/>
</linearGradient>
<linearGradient id="paint22_linear" x1="-85.2634" y1="194.752" x2="414.608" y2="194.752" gradientUnits="userSpaceOnUse">
<stop stop-color="#15C7B6"/>
<stop offset="1" stop-color="#2E3192"/>
</linearGradient>
<linearGradient id="paint23_linear" x1="413.185" y1="220.305" x2="413.185" y2="17.7559" gradientUnits="userSpaceOnUse">
<stop stop-color="#15C7B6"/>
<stop offset="0.63" stop-color="#2D3493"/>
<stop offset="1" stop-color="#0A0C1C"/>
</linearGradient>
<linearGradient id="paint24_linear" x1="-85.2634" y1="220.661" x2="414.608" y2="220.661" gradientUnits="userSpaceOnUse">
<stop offset="0.5" stop-color="#15C7B6"/>
<stop offset="1" stop-color="#2E3192"/>
</linearGradient>
<linearGradient id="paint25_linear" x1="221.845" y1="200.889" x2="221.845" y2="37.2178" gradientUnits="userSpaceOnUse">
<stop stop-color="#15C7B6"/>
<stop offset="0.63" stop-color="#2D3493"/>
<stop offset="1" stop-color="#0A0C1C"/>
</linearGradient>
<linearGradient id="paint26_linear" x1="222.9" y1="202.294" x2="222.9" y2="35.7149" gradientUnits="userSpaceOnUse">
<stop stop-color="#15C7B6"/>
<stop offset="1" stop-color="#2E3192"/>
</linearGradient>
<linearGradient id="paint27_linear" x1="162.759" y1="144.104" x2="162.759" y2="48.5059" gradientUnits="userSpaceOnUse">
<stop stop-color="#15C7B6"/>
<stop offset="1" stop-color="#2E3192"/>
</linearGradient>
<linearGradient id="paint28_linear" x1="216.198" y1="142.498" x2="216.198" y2="50.5986" gradientUnits="userSpaceOnUse">
<stop stop-color="#15C7B6"/>
<stop offset="1" stop-color="#2E3192"/>
</linearGradient>
<linearGradient id="paint29_linear" x1="212.366" y1="144.155" x2="212.366" y2="48.5572" gradientUnits="userSpaceOnUse">
<stop stop-color="#15C7B6"/>
<stop offset="1" stop-color="#2E3192"/>
</linearGradient>
<linearGradient id="paint30_linear" x1="138.705" y1="220.881" x2="138.705" y2="165.205" gradientUnits="userSpaceOnUse">
<stop stop-color="#15C7B6"/>
<stop offset="1" stop-color="#2E3192"/>
</linearGradient>
<linearGradient id="paint31_linear" x1="379.616" y1="220.881" x2="379.616" y2="165.205" gradientUnits="userSpaceOnUse">
<stop stop-color="#15C7B6"/>
<stop offset="1" stop-color="#2E3192"/>
</linearGradient>
<linearGradient id="paint32_linear" x1="150.992" y1="179.241" x2="150.992" y2="152.194" gradientUnits="userSpaceOnUse">
<stop offset="0.05" stop-color="#227AA4"/>
<stop offset="1" stop-color="#2E3192"/>
</linearGradient>
<linearGradient id="paint33_linear" x1="164.687" y1="163.117" x2="164.687" y2="133.055" gradientUnits="userSpaceOnUse">
<stop offset="0.05" stop-color="#227AA4"/>
<stop offset="1" stop-color="#2E3192"/>
</linearGradient>
<linearGradient id="paint34_linear" x1="150.966" y1="147.126" x2="-13.2812" y2="147.126" gradientUnits="userSpaceOnUse">
<stop stop-color="#15C7B6"/>
<stop offset="1" stop-color="#2E3192"/>
</linearGradient>
<linearGradient id="paint35_linear" x1="163.987" y1="126.716" x2="5.99626" y2="126.716" gradientUnits="userSpaceOnUse">
<stop stop-color="#15C7B6"/>
<stop offset="1" stop-color="#2E3192"/>
</linearGradient>
<linearGradient id="paint36_linear" x1="347.525" y1="183.028" x2="347.525" y2="152.194" gradientUnits="userSpaceOnUse">
<stop offset="0.05" stop-color="#227AA4"/>
<stop offset="1" stop-color="#2E3192"/>
</linearGradient>
<linearGradient id="paint37_linear" x1="321.288" y1="163.117" x2="321.288" y2="133.055" gradientUnits="userSpaceOnUse">
<stop offset="0.05" stop-color="#227AA4"/>
<stop offset="1" stop-color="#2E3192"/>
</linearGradient>
<linearGradient id="paint38_linear" x1="178.262" y1="169.407" x2="338.144" y2="169.407" gradientUnits="userSpaceOnUse">
<stop stop-color="#15C7B6"/>
<stop offset="0.9" stop-color="#2E3192"/>
</linearGradient>
<linearGradient id="paint39_linear" x1="165.587" y1="156.763" x2="319.376" y2="156.763" gradientUnits="userSpaceOnUse">
<stop stop-color="#15C7B6"/>
<stop offset="0.9" stop-color="#2E3192"/>
</linearGradient>
<linearGradient id="paint40_linear" x1="401.233" y1="231.92" x2="401.233" y2="131.608" gradientUnits="userSpaceOnUse">
<stop offset="0.05" stop-color="#227AA4"/>
<stop offset="0.61" stop-color="#2E3192"/>
<stop offset="1" stop-color="#22246A"/>
</linearGradient>
<linearGradient id="paint41_linear" x1="363.669" y1="184.475" x2="363.669" y2="166.455" gradientUnits="userSpaceOnUse">
<stop offset="0.05" stop-color="#227AA4"/>
<stop offset="1" stop-color="#26609E"/>
</linearGradient>
<linearGradient id="paint42_linear" x1="137.958" y1="156.042" x2="-39.9707" y2="156.042" gradientUnits="userSpaceOnUse">
<stop stop-color="#15C7B6"/>
<stop offset="1" stop-color="#2E3192"/>
</linearGradient>
<linearGradient id="paint43_linear" x1="192.159" y1="185.823" x2="364.697" y2="185.823" gradientUnits="userSpaceOnUse">
<stop stop-color="#15C7B6"/>
<stop offset="0.9" stop-color="#2E3192"/>
</linearGradient>
<linearGradient id="paint44_linear" x1="147.891" y1="169.194" x2="147.891" y2="120.521" gradientUnits="userSpaceOnUse">
<stop stop-color="#15C7B6"/>
<stop offset="1" stop-color="#2E3192"/>
</linearGradient>
<linearGradient id="paint45_linear" x1="200.654" y1="169.194" x2="200.654" y2="120.521" gradientUnits="userSpaceOnUse">
<stop stop-color="#15C7B6"/>
<stop offset="1" stop-color="#2E3192"/>
</linearGradient>
<radialGradient id="paint46_radial" cx="0" cy="0" r="1" gradientUnits="userSpaceOnUse" gradientTransform="translate(163.66 108.672) scale(185.939 88.0696)">
<stop stop-color="#2D3493" stop-opacity="0.01"/>
<stop offset="0.24" stop-color="#22286F" stop-opacity="0.15"/>
<stop offset="1" stop-color="#0A0C1C" stop-opacity="0.5"/>
</radialGradient>
</defs>
</svg>
