<?xml version="1.0" encoding="UTF-8"?>
<svg width="316px" height="182px" viewBox="0 0 316 182" version="1.1" xmlns="http://www.w3.org/2000/svg" xmlns:xlink="http://www.w3.org/1999/xlink">
    <title>Card</title>
    <defs>
        <linearGradient x1="50%" y1="0%" x2="50%" y2="100%" id="linearGradient-1">
            <stop stop-color="#010C13" offset="0%"></stop>
            <stop stop-color="#123269" offset="100%"></stop>
        </linearGradient>
        <rect id="path-2" x="0" y="0" width="316" height="181.22"></rect>
        <linearGradient x1="50%" y1="0%" x2="50%" y2="100%" id="linearGradient-4">
            <stop stop-color="#1C4C9C" offset="0%"></stop>
            <stop stop-color="#1775A9" offset="100%"></stop>
        </linearGradient>
        <linearGradient x1="50%" y1="100%" x2="50%" y2="0%" id="linearGradient-5">
            <stop stop-color="#15C7B6" offset="0%"></stop>
            <stop stop-color="#2E3192" offset="100%"></stop>
        </linearGradient>
        <linearGradient x1="0%" y1="50.0037277%" x2="100%" y2="50.0037277%" id="linearGradient-6">
            <stop stop-color="#15C7B6" stop-opacity="0" offset="0%"></stop>
            <stop stop-color="#2E3192" offset="100%"></stop>
        </linearGradient>
    </defs>
    <g id="⚡-Active---THORChain.org" stroke="none" stroke-width="1" fill="none" fill-rule="evenodd">
        <g id="Mobile---4---RUNE" transform="translate(-82.000000, -3618.000000)">
            <g id="Mobile:-Content" transform="translate(0.000000, 3.000000)">
                <g id="It-Incentivizes-the-Network" transform="translate(20.000000, 3544.000000)">
                    <g id="Card" transform="translate(62.000000, 71.000000)">
                        <mask id="mask-3" fill="white">
                            <use xlink:href="#path-2"></use>
                        </mask>
                        <use id="Background" fill="url(#linearGradient-1)" xlink:href="#path-2"></use>
                        <g id="Thorchain_Pays" mask="url(#mask-3)">
                            <g transform="translate(-39.000000, 10.000000)" id="Group">
                                <polygon id="Triangle" fill="url(#linearGradient-4)" points="302.244293 94.5154303 366.320107 124.323028 366.320107 306.036257 37.4114774 316.5937 37.4114774 176.59314"></polygon>
                                <polygon id="Path" fill="url(#linearGradient-5)" fill-rule="nonzero" points="84.423951 104.139238 113.348656 306.067342 233.949646 349.29662 350.73415 324.335106 311.369812 275.717598 194.210771 35.9864255 163.754731 46.6916771"></polygon>
                                <path d="M91.7203157,68.1781377 C91.7203157,68.1781377 94.3847451,71.9760096 104.620516,71.1974459 L108.949029,81.7222985 C108.949029,81.7222985 88.4917098,98.4186931 78.5214338,122.753558 C73.5339252,134.92099 75.719516,148.863927 90.0183047,166.756652 C103.003843,182.997302 102.975397,219.869891 102.975397,219.869891 L93.1805368,309.917435 L121.669072,247.333253 L123.40427,205.627871 L157.193218,181.824709 L222.007124,207.412871 L262.514037,209.900477 L236.964908,174.328659 L239.453921,118.784781 C239.453921,118.784781 252.543761,22.6796316 171.525193,52.0134452 L149.716696,51.3867963 L119.175317,43.268845 L91.7203157,68.1781377 Z" id="Path" fill="#1FE0DF" fill-rule="nonzero"></path>
                                <path d="M107.749561,5.60344985 C107.749561,5.60344985 91.7013517,9.40132181 88.1171726,17.7044194 C84.5329935,26.0075169 99.6567123,19.2235682 99.6567123,19.2235682 C99.6567123,19.2235682 133.990873,1.82456725 107.749561,5.60344985 Z" id="Path" fill="#0A0C1C" fill-rule="nonzero"></path>
                                <path d="M114.974811,90.7992125 C117.738801,90.7992125 135.029147,66.9058506 132.95734,53.7462242 C132.601862,51.1987843 131.88673,48.7148397 130.833382,46.368858 L120.35108,43.5821694 L111.219957,50.4848017 L91.7203157,68.1781377 C91.7203157,68.1781377 94.3847451,71.9760096 104.620516,71.1974459 L107.507771,78.1665409 C109.935152,83.8016334 113.32021,90.7992125 114.974811,90.7992125 Z" id="Path" fill="#19C2C2" fill-rule="nonzero"></path>
                                <path d="M82.3568847,27.1943519 C82.3568847,27.1943519 85.0782059,36.2142978 85.5854905,36.0338989 C86.0927751,35.8535 84.3955051,42.9887519 84.3955051,42.9887519 C84.3955051,42.9887519 89.3213809,70.0485896 93.7399721,69.4978982 C98.1585634,68.9472067 111.23418,62.5382978 120.066621,61.9781117 C128.899063,61.4179256 131.956993,47.6886185 131.956993,47.6886185 L132.298344,38.2888854 C132.298344,38.2888854 137.731504,33.9640587 137.731504,29.8291256 C137.731504,25.6941925 137.560829,15.5396324 132.127669,17.6094726 C126.694508,19.6793128 126.182482,23.2493124 126.182482,23.2493124 L123.295227,24.5643256 C123.295227,24.5643256 122.953877,4.25995264 109.366235,4.25995264 C95.7785926,4.25995264 87.9654613,6.13989926 82.3568847,27.1943519 Z" id="Path" fill="#1FE0DF" fill-rule="nonzero"></path>
                                <path d="M130.710116,39.945707 C130.710116,39.945707 127.306094,59.2341492 150.717042,53.6275407 L161.6687,51.5529532 C161.6687,51.5529532 145.620491,59.5474736 135.593323,11.2622791 C135.593323,11.2622791 132.383681,-3.38326467 106.14237,0.770657784 C106.14237,0.770657784 90.0989013,4.92458024 86.5099812,14.0632096 C82.9210611,23.201839 98.0684848,15.7342733 98.0684848,15.7342733 C98.0684848,15.7342733 116.819052,1.01751946 117.577608,14.3100713 C118.336164,27.6026232 122.588821,31.7138195 122.588821,31.7138195 C122.588821,31.7138195 126.931557,21.7444057 131.838469,27.7687801 C135.114484,31.7850296 130.710116,39.945707 130.710116,39.945707 Z" id="Path" fill="#03807F" fill-rule="nonzero"></path>
                                <path d="M171.525193,52.0086978 C171.525193,52.0086978 207.238978,18.0367332 242.412292,68.9044807 L276.343469,98.0436533 C290.206088,108.6682 296.530552,125.63994 298.967414,142.962984 L309.364378,195.126755 L308.800202,220.563003 C308.686419,225.851539 305.898724,232.336406 300.622016,232.654477 C291.400814,233.209916 282.980838,235.569344 276.917127,229.070236 C267.800227,219.262231 276.144348,206.192805 276.144348,206.192805 L283.957479,189.885692 C283.957479,189.885692 253.07475,147.392252 252.420495,129.119741 C252.420495,129.119741 227.610959,118.922454 203.839697,105.083958 C181.93638,92.342098 159.402513,84.3618195 171.525193,52.0086978 Z" id="Path" fill="#1FE0DF" fill-rule="nonzero"></path>
                                <polygon id="Path" fill="#19C2C2" fill-rule="nonzero" points="235.80811 74.145544 225.790424 91.7344385 194.054319 98.6133341 232.07696 97.9724432"></polygon>
                                <path d="M180.248592,63.9340158 L180.623129,91.0935476 C187.179901,96.1304753 200.957183,106.346751 209.244412,111.170048 C233.001451,125.008544 252.439459,129.129235 252.439459,129.129235 C252.548502,132.129554 253.472992,135.775511 254.937955,139.791761 L252.676508,124.163518 C200.805471,111.801444 180.248592,63.9340158 180.248592,63.9340158 Z" id="Path" fill="#19C2C2" fill-rule="nonzero"></path>
                                <path d="M184.524954,55.2036576 C184.524954,55.2036576 176.830347,73.7182834 189.398679,92.7313799 C193.291022,98.6133341 199.82883,100.474291 208.324662,105.909996 C217.612237,111.86316 229.113849,121.28663 239.415994,125.155712 L236.964908,174.319164 L261.764962,208.822831 L157.193218,181.805719 L129.140853,182.365905 L80.0575105,119.48264 C80.0575105,119.48264 77.7723593,108.872336 88.0176121,101.419012 C98.2628649,93.9656883 121.441505,95.7554354 121.441505,95.7554354 L143.321117,86.1990401 L184.524954,55.2036576 Z" id="Path" fill="#003876" fill-rule="nonzero"></path>
                                <path d="M151.541972,49.9151209 C151.541972,49.9151209 142.889688,72.7450787 137.513419,91.5872709 C137.513419,91.5872709 178.456502,77.4117139 180.248592,63.9530051 L193.822011,36.0054149 C193.822011,36.0054149 154.931771,43.548938 151.541972,49.9151209 Z" id="Path" fill="#025D94" fill-rule="nonzero"></path>
                                <path d="M108.427521,80.9294928 L121.261348,103.901871 C121.261348,103.901871 94.3325944,109.641405 87.3538752,109.233134 L87.3538752,103.47461 L108.427521,80.9294928 Z" id="Path" fill="#025D94" fill-rule="nonzero"></path>
                                <path d="M82.8167596,156.388461 C84.9661232,160.006788 87.37286,163.465463 90.0183047,166.737662 C91.9913073,169.283291 93.6381781,172.066315 94.9204756,175.02177 L94.8114331,165.394165 L82.8167596,156.388461 Z" id="Path" fill="#19C2C2" fill-rule="nonzero"></path>
                                <path d="M107.427175,154.000549 C109.361494,157.323687 115.444168,170.711186 118.331423,174.319164 C120.227814,176.692834 120.332116,187.417075 121.711741,190.498099 L130.354543,182.973565 L107.427175,154.000549 Z" id="Path" fill="#19C2C2" fill-rule="nonzero"></path>
                                <path d="M206.840736,146.162691 C204.469402,141.155767 204.058345,135.440683 205.688678,130.145166 L212.615247,107.614291 L209.372418,106.612602 L202.436368,129.133983 C200.55171,135.245104 201.025418,141.841874 203.763841,147.620124 L228.763017,200.47226 L233.029897,201.57839 L206.840736,146.162691 Z" id="Path" fill="#2DA2EA" fill-rule="nonzero"></path>
                                <path d="M129.95156,170.250694 L113.528813,162.954032 L117.97585,168.65084 L128.571935,173.345959 C131.034692,174.45259 133.074911,176.325717 134.389115,178.686717 L140.784694,190.180027 L144.624886,190.104069 L137.356967,177.034643 C135.6806,174.035275 133.083877,171.656467 129.95156,170.250694 Z" id="Path" fill="#2DA2EA" fill-rule="nonzero"></path>
                                <polygon id="Path" fill="#2DA2EA" fill-rule="nonzero" points="134.588236 92.4322975 188.303513 189.842966 192.821665 191.010811 137.560829 90.7849705"></polygon>
                                <polygon id="Path" fill="#2DA2EA" fill-rule="nonzero" points="120.905774 101.836778 168.012129 185.366224 172.549244 186.486596 123.864144 100.165714"></polygon>
                                <path d="M92.8581503,102.173839 C92.8581503,102.173839 137.214738,101.400023 153.030639,64.7078322 L176.560111,70.8793741 C176.560111,70.8793741 157.781099,105.40203 145.317068,114.52167 C132.853038,123.64131 110.60363,129.58498 89.3735317,117.612189 L92.8581503,102.173839 Z" id="Path" fill="#1079B7" fill-rule="nonzero"></path>
                                <path d="M184.098266,75.3086423 C184.098266,86.0328832 175.706735,95.8693716 164.996867,95.8693716 C154.286998,95.8693716 147.60222,87.5140533 147.60222,76.7898123 C147.60222,66.0655408 156.28292,57.371066 166.992818,57.3684446 C177.702687,57.3684446 184.098266,64.5844013 184.098266,75.3086423 Z" id="Path" stroke="#013876" stroke-width="0.25" fill="#2FA8EF" fill-rule="nonzero"></path>
                                <path d="M104.369244,104.276911 C111.836284,109.024251 114.960588,119.264263 110.205388,126.741323 C105.450187,134.218384 96.6651554,135.172599 89.1981155,130.411017 C85.6130643,128.12475 83.0819603,124.50594 82.1617154,120.350822 C81.2414704,116.195705 82.0074809,111.844712 84.2912036,108.255181 C89.0416633,100.782868 96.9022043,99.520076 104.369244,104.276911 Z" id="Path" fill="#2FA8EF" fill-rule="nonzero"></path>
                                <path d="M98.5805104,134.602967 C94.9985868,134.540634 91.5080464,133.460621 88.5154147,131.488663 C80.4651881,126.343381 78.0939561,115.643651 83.2150017,107.571565 C88.245179,99.6672435 96.8168667,97.9534538 105.051945,103.204012 L105.051945,103.204012 C108.988413,105.741981 111.856631,109.639546 113.111607,114.156125 C114.426627,118.63632 113.763994,123.465862 111.291072,127.42494 C108.806799,131.341496 105.22262,133.757892 100.927294,134.427267 C100.15071,134.546177 99.3661193,134.604902 98.5805104,134.602967 Z M95.6268813,102.74352 C91.5923093,102.74352 87.9654613,104.851339 85.3626646,108.943546 C80.9826684,115.830249 83.0052035,124.968309 89.8808163,129.357108 C93.3180251,131.545631 97.0965844,132.457121 100.524311,131.925418 C104.070563,131.374727 107.047897,129.35236 109.129186,126.076696 C111.214866,122.723457 111.765462,118.635977 110.641558,114.849237 C109.565691,110.936783 107.090168,107.557309 103.686543,105.354557 L103.686543,105.354557 C100.941517,103.602788 98.2012322,102.74352 95.6268813,102.74352 Z" id="Shape" fill="#1079B7" fill-rule="nonzero"></path>
                                <path d="M301.793037,141.614739 C300.650773,133.537839 298.036175,125.739839 294.079466,118.60913 L279.15961,113.387056 L265.960728,124.305938 L258.375163,147.881228 C267.511027,167.217144 283.976443,189.87145 283.976443,189.87145 L280.785765,196.517726 L269.080291,206.230783 L267.008484,217.415516 L272.389493,217.828535 L272.683434,217.576926 C272.489386,221.813497 274.03052,225.945849 276.950314,229.018015 C283.009283,235.517123 291.42926,233.157695 300.655202,232.602257 C305.931911,232.284185 308.714865,225.799319 308.833389,220.510782 L309.397565,195.074534 L301.793037,141.614739 Z" id="Path" fill="#1FE0DF" fill-rule="nonzero"></path>
                                <path d="M257.739872,147.710324 C266.330524,165.883141 281.236158,186.918604 283.630352,190.255984 C286.256853,188.865014 289.727249,187.350612 292.917927,186.985067 L264.557398,126.579914 L257.739872,147.710324 Z" id="Path" fill="#013876" fill-rule="nonzero"></path>
                                <path d="M296.705968,187.236676 C301.138782,188.565931 306.775805,194.424149 309.933296,198.041622 L309.980706,196.066728 L302.219725,141.287173 C301.047421,133.015374 298.368623,125.029341 294.316515,117.726125 L279.036344,112.371125 L265.519817,123.574847 L264.547916,126.579914 L292.908445,186.994562 C294.177585,186.816558 295.469622,186.898933 296.705968,187.236676 L296.705968,187.236676 Z" id="Path" fill="#003876" fill-rule="nonzero"></path>
                                <path d="M257.739872,147.710324 C266.330524,165.883141 281.236158,186.918604 283.630352,190.255984 C286.256853,188.865014 289.727249,187.350612 292.917927,186.985067 L264.557398,126.579914 L257.739872,147.710324 Z" id="Path" fill="url(#linearGradient-6)" fill-rule="nonzero"></path>
                                <path d="M164.996867,97.146406 C154.007281,97.146406 146.331638,88.7720984 146.331638,76.7898123 C146.336861,65.3635054 155.581831,56.0997562 166.992818,56.0866628 C178.157821,56.0866628 185.373589,63.6254387 185.373589,75.2991476 C185.373589,87.1437608 176.043345,97.146406 164.996867,97.146406 Z M166.992818,58.6454791 C156.990512,58.65595 148.885382,66.7740803 148.877543,76.7898123 C148.877543,87.2719389 155.514911,94.5970845 164.996867,94.5970845 C174.66372,94.5970845 182.827684,85.7622848 182.827684,75.3086423 C182.827684,65.0306513 176.759232,58.6454791 166.992818,58.6454791 Z" id="Shape" fill="#1079B7" fill-rule="nonzero"></path>
                            </g>
                        </g>
                    </g>
                </g>
            </g>
        </g>
    </g>
</svg>