<?xml version="1.0" encoding="UTF-8"?>
<svg width="33px" height="24px" viewBox="0 0 33 24" version="1.1" xmlns="http://www.w3.org/2000/svg" xmlns:xlink="http://www.w3.org/1999/xlink">
    <title>Shape</title>
    <g id="⚡-Active---THORChain.org" stroke="none" stroke-width="1" fill="none" fill-rule="evenodd">
        <g id="Mobile:-Footer" transform="translate(-109.000000, -32.000000)" fill-rule="nonzero" stroke="#D1D5DA">
            <g transform="translate(0.000000, 9.000000)" id="Videos">
                <g transform="translate(110.000000, 24.000000)" id="Unselected">
                    <path d="M30.7739945,3.44247431 C30.4119114,2.0963614 29.3505937,1.03523543 28.0046725,0.6727688 C25.5458445,0 15.7103405,0 15.7103405,0 C15.7103405,0 5.87522013,0 3.4163921,0.64726185 C2.0963614,1.00934494 1.00915322,2.09655317 0.64707013,3.44247431 C0,5.90111057 0,11 0,11 C0,11 0,16.1245881 0.64707013,18.5575257 C1.00953676,19.9034468 2.07047091,20.9645728 3.41658387,21.3270394 C5.90111057,22 15.7107241,22 15.7107241,22 C15.7107241,22 25.5458445,22 28.0046725,21.3527382 C29.3507855,20.9904632 30.4119114,19.9293373 30.774378,18.5834162 C31.4213885,16.1245881 31.4213885,11.0258905 31.4213885,11.0258905 C31.4213885,11.0258905 31.4471469,5.90111057 30.7739945,3.44247431 L30.7739945,3.44247431 Z M12.5789355,13.9805799 L12.5789355,8.01942005 C12.5789355,7.4671353 13.0266507,7.01942005 13.5789355,7.01942005 C13.754116,7.01942005 13.926223,7.06543913 14.0780257,7.15287003 L19.2530853,10.13345 C19.7316676,10.4090899 19.896185,11.0205079 19.6205451,11.4990902 C19.5325809,11.6518188 19.4058138,11.7785859 19.2530853,11.86655 L14.0780257,14.84713 C13.5994433,15.1227699 12.9880254,14.9582525 12.7123855,14.4796702 C12.6249546,14.3278675 12.5789355,14.1557605 12.5789355,13.9805799 Z" id="Shape"></path>
                </g>
            </g>
        </g>
    </g>
</svg>