<svg width="52" height="52" viewBox="0 0 52 52" fill="none" xmlns="http://www.w3.org/2000/svg">
<circle cx="26" cy="26" r="26" fill="#F3BA2F"/>
<mask id="mask0" mask-type="alpha" maskUnits="userSpaceOnUse" x="0" y="0" width="52" height="52">
<circle cx="26" cy="26" r="26" fill="white"/>
</mask>
<g mask="url(#mask0)">
<path fill-rule="evenodd" clip-rule="evenodd" d="M21.5992 21.9208C21.3573 21.9715 21.1091 22 20.8521 22C18.7212 22 16.9888 20.2041 17.0001 17.9994C17.0001 15.7933 18.7324 14 20.8634 14C20.9261 14 20.9875 14.0052 21.0501 14.0117L21.2131 14L30.0715 14.0013C30.0755 14.0013 30.0794 14.0017 30.0834 14.0021C30.0896 14.0027 30.096 14.0034 30.1029 14.0026C30.1069 14.0026 30.1117 14.0021 30.1169 14.0015C30.1231 14.0008 30.1299 14 30.1367 14C30.1846 14 30.2325 14.0069 30.2806 14.0139L30.2806 14.0139C30.3131 14.0186 30.3458 14.0233 30.3787 14.026C32.4231 14.1376 34 15.879 34 17.9994C34 20.2041 32.2664 22 30.1367 22C29.881 22 29.6278 21.9715 29.3871 21.9208C29.3362 21.9103 29.2877 21.8947 29.2393 21.8791C29.2102 21.8697 29.1811 21.8603 29.1515 21.8521C28.9935 21.8092 28.8369 21.7651 28.6889 21.7028C28.6278 21.677 28.5701 21.6456 28.5132 21.6146L28.5132 21.6145L28.513 21.6144C28.4872 21.6004 28.4615 21.5864 28.4357 21.5731C28.3016 21.5056 28.1763 21.4381 28.0522 21.3577C27.982 21.3085 27.9138 21.2536 27.8466 21.1996L27.8466 21.1996L27.814 21.1734C27.7037 21.0878 27.5959 20.9995 27.4956 20.9022C27.4279 20.8389 27.3688 20.7707 27.3091 20.7019L27.2825 20.6712C27.1923 20.5674 27.1045 20.4623 27.0256 20.3468C26.9616 20.2599 26.9065 20.1703 26.8501 20.0782C26.7811 19.9588 26.7172 19.8368 26.6583 19.7097C26.6107 19.611 26.5668 19.5124 26.5317 19.4086C26.4828 19.2762 26.4414 19.1413 26.4076 19.0024C26.3788 18.896 26.3537 18.7883 26.3349 18.6767C26.3309 18.6557 26.3257 18.6354 26.3205 18.6151L26.3205 18.6151L26.3205 18.6151C26.3141 18.5903 26.3077 18.5655 26.3035 18.5392H24.6828C24.6801 18.5645 24.6736 18.5884 24.6672 18.6122L24.6672 18.6122C24.6614 18.6335 24.6557 18.6547 24.6527 18.6767C24.6353 18.7723 24.6123 18.866 24.5893 18.9594L24.5787 19.0024C24.5436 19.1413 24.5048 19.2775 24.4571 19.4086C24.4183 19.5111 24.3769 19.611 24.3305 19.7097C24.2704 19.8368 24.2077 19.9588 24.1375 20.0782C24.0824 20.1716 24.0259 20.2612 23.9658 20.3468C23.8856 20.4623 23.7966 20.5687 23.7063 20.6712L23.6866 20.6938L23.6866 20.6938C23.6244 20.7654 23.5626 20.8364 23.4957 20.9022C23.3929 20.9995 23.2864 21.0878 23.1761 21.1734L23.1377 21.2039C23.0709 21.2572 23.0049 21.3097 22.9354 21.3577C22.8126 21.4381 22.6847 21.5056 22.5543 21.5731C22.5261 21.5875 22.4986 21.6024 22.4712 21.6173C22.4146 21.648 22.3586 21.6784 22.2986 21.7028C22.1557 21.7625 22.006 21.8043 21.8548 21.8465L21.8548 21.8465L21.8348 21.8521C21.802 21.8607 21.7698 21.8711 21.7376 21.8816L21.7376 21.8816L21.7376 21.8816C21.6922 21.8963 21.6468 21.911 21.5992 21.9208ZM29.6341 15.1367L29.5137 15.1601C28.2577 15.4534 27.3126 16.6122 27.3139 17.9981C27.3139 19.6058 28.5774 20.9139 30.1305 20.9139C31.6798 20.9139 32.9433 19.6058 32.9433 17.9981C32.9433 16.3929 31.6798 15.0835 30.1305 15.0835C29.96 15.0835 29.7958 15.1056 29.6341 15.1367ZM27.5019 15.0848C26.8676 15.6973 26.4427 16.5252 26.3211 17.4582H24.6665C24.5424 16.5252 24.1175 15.6973 23.4844 15.0848H27.5019ZM23.6687 17.9994C23.6687 16.3942 22.4052 15.0848 20.8521 15.0848C19.3003 15.0848 18.0355 16.3929 18.0355 17.9994C18.0355 19.6071 19.3003 20.9152 20.8521 20.9152C22.4052 20.9152 23.6687 19.6071 23.6687 17.9994Z" fill="#02121D"/>
<path d="M28.5151 23.1506C28.2751 23.084 28.1015 23.0358 27.9342 22.9691C27.8603 22.9395 27.7914 22.9025 27.7212 22.8654C27.5046 22.758 27.3606 22.6852 27.2265 22.5988C27.1502 22.5469 27.0825 22.4951 27.0098 22.442C26.8338 22.3074 26.7169 22.2136 26.6037 22.1086C26.5175 22.0247 26.4425 21.942 26.3662 21.858C26.2652 21.7469 26.1692 21.6309 26.0818 21.5062C26.0105 21.4136 25.9538 21.3185 25.8911 21.2198C25.8123 21.0889 25.7385 20.9568 25.6732 20.8185C25.624 20.7123 25.5748 20.6062 25.5329 20.4951C25.4775 20.3481 25.4357 20.2037 25.3963 20.0556C25.3926 20.0358 25.3877 20.0173 25.3815 20H24.6086C24.6037 20.0185 24.5988 20.0383 24.5926 20.0568C24.5545 20.2037 24.5126 20.3481 24.4572 20.4926C24.4154 20.6062 24.3674 20.7123 24.3194 20.8185C24.2517 20.958 24.1803 21.0889 24.1028 21.2173C24.0412 21.316 23.9785 21.4136 23.9083 21.5062C23.8197 21.6309 23.7225 21.7457 23.6215 21.858C23.5452 21.942 23.4702 22.0247 23.3889 22.1025C23.272 22.2136 23.1538 22.3074 23.032 22.4012C22.9065 22.4963 22.8363 22.5481 22.7637 22.5963C22.6271 22.684 22.4831 22.7568 22.3391 22.8309C22.1938 22.9062 22.1237 22.9407 22.0511 22.9691C21.8874 23.0358 21.7126 23.084 21.5366 23.1321C21.4037 23.1716 21.3397 23.1914 21.2732 23.2049C20.472 23.3667 19.6966 23.2914 19 23.042C20.0018 25.3704 22.3071 27 24.9963 27C27.6905 27 30.0055 25.3605 31 23.0198C30.5458 23.184 30.0597 23.2889 29.5477 23.2889C29.2745 23.2889 28.9951 23.2617 28.712 23.2049C28.6455 23.1901 28.5791 23.1704 28.5151 23.1506Z" fill="#02121D"/>
<path d="M26.0006 12.401C24.9161 12.401 23.8991 12.837 23 13.599H29C28.1021 12.839 27.0839 12.401 26.0006 12.401Z" fill="#02121D"/>
<path d="M46.1939 19.2295L36.2367 15.5028C36.2367 15.5028 34.2385 14.7702 33 15.139C33.8625 15.9366 34.4027 17.0605 34.4027 18.3156C34.4027 19.267 34.0868 20.1396 33.5704 20.8597L37.0415 22.8712C33.9853 25.0214 31.4731 26.2778 29.2882 28.3518C26.5002 30.5558 25.4986 36.859 25.4986 36.859C24.7565 32.4185 21.7642 28.4018 21.7642 28.4018C19.6031 26.3316 16.5117 24.5164 13.433 22.3486L17.0896 20.7322C16.6271 20.0371 16.35 19.207 16.35 18.3156C16.35 17.033 16.9179 15.8866 17.8042 15.0865C17.1699 14.7502 14.7605 15.5028 14.7605 15.5028L4.80713 19.2295C4.19915 19.9021 3.91459 20.8022 4.0224 21.7023C4.13146 22.5999 4.62286 23.4075 5.37375 23.9163C7.43713 25.319 12.5392 28.8869 15.6618 31.4147L15.7834 33.1486L15.717 58.7366V84.2083C15.717 86.3036 17.2551 88 19.4138 88C21.5737 88 23.3224 86.3036 23.3224 84.2083V57.669C23.3224 57.669 23.449 56.3238 24.8242 56.3088C26.1994 56.2913 26.1618 57.6002 26.1618 57.6002V84.1346C26.1618 86.2298 27.9117 87.9262 30.0716 87.9262C32.2328 87.9262 33.979 86.2298 33.979 84.1346L34.1094 56.7564C34.1094 56.4963 34.1407 32.5998 34.1407 32.5998C34.1407 32.5998 34.1257 32.5635 34.1069 32.4523C36.9011 29.982 43.2617 25.5265 45.626 23.9163C46.3781 23.4075 46.8695 22.5999 46.9773 21.7023C47.0864 20.8034 46.7981 19.9021 46.1939 19.2295Z" fill="#02121D"/>
<ellipse cx="25.5" cy="34" rx="8.5" ry="6" fill="#02121D"/>
<path d="M30 27.3911L22 27.4711C24.4125 28.7711 27.2103 29.2211 30 27.3911Z" fill="#02121D"/>
</g>
<circle cx="26" cy="26" r="25" stroke="#F3BA2F" stroke-width="2"/>
<mask id="mask1" mask-type="alpha" maskUnits="userSpaceOnUse" x="0" y="0" width="52" height="52">
<circle cx="26" cy="26" r="25" fill="white" stroke="white" stroke-width="2"/>
</mask>
<g mask="url(#mask1)">
</g>
</svg>
