<svg width="69" height="110" viewBox="0 0 69 110" fill="none" xmlns="http://www.w3.org/2000/svg">
<path d="M0.234985 55.9051L33.9291 75.8116V0L0.234985 55.9051Z" fill="#15242E"/>
<path opacity="0.8" d="M33.9291 0V75.8116L67.6099 55.9051L33.9291 0Z" fill="#15242E"/>
<path d="M0.234985 62.2891L33.9291 109.757V82.1956L0.234985 62.2891Z" fill="#15242E"/>
<path opacity="0.8" d="M33.9291 82.1956V109.757L67.6364 62.2891L33.9291 82.1956Z" fill="#15242E"/>
<path opacity="0.184307" d="M33.9291 40.5811L0.234985 55.905L33.9291 75.8115L67.6099 55.905L33.9291 40.5811Z" fill="#000B12"/>
</svg>
