<svg width="111" height="110" viewBox="0 0 111 110" fill="none" xmlns="http://www.w3.org/2000/svg">
<path d="M99.9224 48.2025C99.9224 54.3572 108.889 67.0233 107.023 72.5481C105.703 76.4546 103.956 80.1643 101.837 83.6216C92.1783 99.3838 75.9707 93.3745 56.1282 93.3745C36.3402 93.3745 17.8194 99.4415 8.14449 83.7512C5.95169 80.1951 4.15282 76.3702 2.80872 72.3374C0.987439 66.8728 12.162 63.6547 12.162 57.5782C12.162 27.231 17.0932 15.0332 47.4427 15.0332C77.7922 15.0332 99.9224 17.853 99.9224 48.2025Z" fill="white"/>
<path d="M54.9865 0C24.6277 0 -0.0316445 24.6544 0.00700337 54.9854C0.0146158 61.0537 0.982276 66.8909 2.79843 72.3511H19.2495V26.0946L54.9865 61.8313L90.7217 26.0946V72.352H107.176C108.995 66.8921 109.958 61.0548 109.969 54.9862C110.02 24.6237 85.3485 0.00731967 54.9865 0.00731967V0Z" fill="#F26822"/>
<path d="M46.768 70.0469L31.1721 54.4502V83.5573H19.2484L7.99689 83.5594C17.648 99.3933 35.0899 109.985 54.9865 109.985C74.8832 109.985 92.3259 99.3909 101.979 83.557H78.7974V54.4502L63.2007 70.0469L54.9848 78.2628L46.7686 70.0469H46.768Z" fill="#4D4D4D"/>
</svg>
