<svg width="17" height="17" viewBox="0 0 17 17" fill="none" xmlns="http://www.w3.org/2000/svg">
<rect width="17" height="17" rx="3" fill="#15252E"/>
<path d="M4.09714 5.66035C4.09714 5.5266 4.03066 5.35941 3.93094 5.29254L2.90053 4.02191V3.82129H6.15796L8.65089 9.37191L10.8779 3.82129H13.9691V4.02191L13.0717 4.89129C13.0052 4.92473 12.972 5.02504 12.972 5.12535V11.4785C12.972 11.5788 13.0052 11.6791 13.0717 11.746L13.9691 12.5819V12.7825H9.54834V12.5819L10.4458 11.7125C10.5455 11.6122 10.5455 11.5788 10.5455 11.445V6.3291L8.01934 12.7491H7.68695L4.76192 6.3291V10.6425C4.72868 10.8097 4.79516 11.0103 4.92811 11.1441L6.09148 12.5819V12.7491H2.76758V12.5819L3.93094 11.1441C4.0639 11.0103 4.13038 10.8097 4.09714 10.6425V5.66035Z" fill="#000B12"/>
</svg>
