<svg width="413" height="256" viewBox="0 0 413 256" fill="none" xmlns="http://www.w3.org/2000/svg">
<path fill-rule="evenodd" clip-rule="evenodd" d="M97.3876 25.8499C95.0079 6.46893 77.3119 -7.30968 57.8499 -4.92005C38.3955 -2.53135 24.5509 15.12 26.9382 34.5C29.3179 53.881 47.0214 67.6586 66.4683 65.2709C85.9303 62.8812 99.7673 45.2309 97.3876 25.8499ZM11.1547 73.2342C34.4172 70.9497 44.4714 81.2041 44.4714 81.2041C44.4714 81.2041 111.067 150.403 103.156 173.376C100.891 179.841 94.3076 191.21 75.2049 194.773C74.8518 194.839 74.4514 194.896 74.0652 194.944C64.3114 196.141 55.286 189.622 53.4815 179.934C51.7188 170.586 57.3447 161.564 66.2452 158.801C64.5726 155.07 61.0135 149.373 54.3207 140.692C50.0348 151.159 48.1379 154.89 46.5436 158.025C43.5359 163.941 41.6052 167.738 26.7433 210.648C4.0402 276.292 24.4357 377.353 24.4357 377.353C25.8955 389.242 17.4204 400.039 5.50842 401.502C-6.39597 402.964 -17.236 394.5 -18.6912 382.648L-24.8715 332.314C-38.666 352.501 -57.0725 369.748 -79.62 383.069C-82.1638 384.576 -84.8905 385.47 -87.6319 385.806C-95.553 386.779 -103.658 383.126 -107.981 375.838C-113.811 366.047 -110.541 353.423 -100.703 347.59C-64.3524 326.172 -42.7402 292.963 -38.1918 251.688C-37.889 248.833 -37.0238 246.238 -35.726 243.911L-36.4559 237.966C-36.4559 237.966 -25.3018 138.553 -16.5713 117.44L-91.1917 144.583C-94.5031 145.786 -97.9296 145.801 -101.075 144.916L-109.126 139.632C-110.23 138.275 -111.185 136.761 -111.821 135.024C-114.855 126.712 -110.552 117.5 -102.207 114.469L11.1547 73.2342Z" fill="#02121D"/>
<path fill-rule="evenodd" clip-rule="evenodd" d="M128.644 25.8489C131.023 6.46792 148.719 -7.3107 168.181 -4.92107C187.636 -2.53236 201.48 15.1189 199.093 34.499C196.713 53.8799 179.01 67.6576 159.563 65.2699C140.101 62.8802 126.264 45.2298 128.644 25.8489ZM181.54 95.6975L203.141 172.754L217.046 170.755L187.179 92.9056L196.664 99.5456C197.013 99.7109 197.391 99.8263 197.777 99.8737C198.784 99.9973 199.797 99.7005 200.572 99.0222C201.661 98.0992 202.068 96.6023 201.636 95.2397L193.758 70.6248C193.312 69.2528 192.066 68.1886 190.626 68.1496C189.172 68.0324 187.778 68.8032 187.127 70.1016L179.733 84.6781L169.232 83.94C167.836 83.8453 166.502 84.5698 165.836 85.7975C165.171 87.0253 165.271 88.5232 166.11 89.6447L173.414 99.463C174.009 100.248 174.9 100.756 175.862 100.874C176.043 100.896 176.256 100.915 176.45 100.9C177.648 100.848 178.747 100.225 179.347 99.219L181.54 95.6975ZM389.796 210.689L380.255 154.044L350.788 158.949L360.329 215.595L389.796 210.689ZM228.217 177.38L194.86 182.037L162.195 93.9809C135.803 123.8 114.965 150.402 122.875 173.375C125.141 179.84 131.724 191.209 150.826 194.772C151.18 194.838 151.58 194.895 151.966 194.943C161.72 196.14 170.745 189.621 172.55 179.933C174.313 170.585 168.687 161.562 159.786 158.8C161.459 155.069 165.018 149.372 171.711 140.691C175.997 151.158 177.893 154.889 179.488 158.024C182.495 163.94 184.426 167.737 199.288 210.647C221.991 276.291 201.596 377.352 201.596 377.352C200.136 389.241 208.611 400.038 220.523 401.501C232.427 402.963 243.267 394.499 244.723 382.647L250.903 332.313C264.697 352.5 283.104 369.747 305.651 383.068C308.195 384.575 310.922 385.469 313.663 385.805C321.584 386.778 329.689 383.125 334.012 375.837C339.842 366.046 336.572 353.422 326.734 347.589C290.384 326.171 268.771 292.962 264.223 251.687C263.92 248.832 263.055 246.237 261.757 243.91L262.487 237.965C262.487 237.965 294.212 283.726 303.117 281.067C312.013 278.415 267.522 181.249 267.522 181.249C259.612 159.838 251.333 138.552 242.603 117.439L317.223 144.582C320.534 145.785 323.961 145.8 327.106 144.915L344.994 251.212C345.368 253.426 347.184 254.973 349.043 254.673L356.202 217.339L346.399 159.069L335.157 139.631C336.262 138.274 337.216 136.76 337.852 135.023C340.887 126.711 336.583 117.499 328.238 114.468L214.877 73.2332C207.938 69.9589 203.235 71.0233 200.728 71.5907C200.286 71.6906 199.913 71.7751 199.607 71.8178L228.217 177.38Z" fill="#02121D"/>
</svg>
