<svg width="52" height="52" viewBox="0 0 52 52" fill="none" xmlns="http://www.w3.org/2000/svg">
<circle cx="26" cy="26" r="25" fill="#0E0F23" stroke="url(#paint0_linear)" stroke-width="2"/>
<mask id="mask0" mask-type="alpha" maskUnits="userSpaceOnUse" x="0" y="0" width="52" height="52">
<circle cx="26" cy="26" r="25" fill="white" stroke="white" stroke-width="2"/>
</mask>
<g mask="url(#mask0)">
<path d="M21.8398 15.0356C18.1513 15.8759 13.0124 18.492 11.9268 26.4045H8.67429C7.99626 26.4045 7.38533 26.8032 7.12685 27.4118C6.86786 28.0205 7.01301 28.7208 7.4932 29.1856L14.9292 36.3702C15.7981 37.2096 17.2019 37.2101 18.0708 36.3707L25.5068 29.1856C25.987 28.7218 26.1321 28.02 25.8732 27.4113C25.6142 26.8027 25.0032 26.404 24.3257 26.404L21.1786 26.404C21.1821 23.7044 21.548 19.8126 23.3226 17.044C23.6179 16.584 23.5985 15.9975 23.2724 15.5574C22.9483 15.1181 22.3826 14.9115 21.8398 15.0356Z" fill="#ECB52E"/>
<path d="M30.1602 36.9644C33.8487 36.1241 38.9876 33.508 40.0732 25.5955H43.3257C44.0037 25.5955 44.6147 25.1968 44.8732 24.5882C45.1321 23.9795 44.987 23.2792 44.5068 22.8144L37.0708 15.6298C36.2019 14.7904 34.7981 14.7899 33.9292 15.6293L26.4932 22.8144C26.013 23.2782 25.8679 23.98 26.1268 24.5887C26.3858 25.1973 26.9968 25.596 27.6743 25.596L30.8214 25.596C30.8179 28.2956 30.452 32.1874 28.6774 34.956C28.3821 35.416 28.4015 36.0025 28.7276 36.4426C29.0517 36.8819 29.6174 37.0885 30.1602 36.9644Z" fill="#A2C6F8"/>
</g>
<defs>
<linearGradient id="paint0_linear" x1="0" y1="0" x2="0" y2="52" gradientUnits="userSpaceOnUse">
<stop stop-color="#E9E9EB"/>
<stop offset="1" stop-color="#E84C96"/>
</linearGradient>
</defs>
</svg>
