View / Location,Name,URL,Google Analytics Events,,
,,,Action,Category,Label
Navigation,Blue Bar at the top,http://shapeshift.app.link/wDRGTdULMcb,external_link,promo,nav_shapeshift_mobile_app
Navigation,Telegram,https://t.me/thorchain_org,external_link,social,nav_telegram_community
Navigation,Gitlab,https://gitlab.com/thorchain,external_link,social,nav_gitlab
Navigation,Twitter,https://twitter.com/thorchain_org,external_link,social,nav_twitter
Navigation,Tech,https://thorchain.org/technology,None,,
Navigation,RUNE,https://thorchain.org/rune,None,,
Navigation,Learn Pooling,https://medium.com/thorchain/an-in-depth-guide-to-thorchains-liquidity-pools-c4ea7829e1bf,external_link,article,nav_medium_liquidity_pooling
Navigation,Block Counter,https://viewblock.io/thorchain,external_link,tool,nav_viewblock
Footer,How does it work?,https://thorchain.org/technology#how-does-it-work,None,,
Footer,How does it compare?,https://thorchain.org/technology#how-does-it-compare,None,,
Footer,Has it been audited?,https://thorchain.org/technology#has-it-been-audited,None,,
Footer,How active is it?,https://thorchain.org/technology#how-active-is-it,None,,
Footer,What are the incentives?,https://docs.thorchain.org/how-it-works/incentive-pendulum,external_link,doc,footer_docs_incentive_pendulum
Footer,What are the fees?,https://docs.thorchain.org/how-it-works/fees,external_link,doc,footer_docs_fees
Footer,Are there limit-order books?,https://docs.thorchain.org/how-it-works/continuous-liquidity-pools,external_link,doc,footer_docs_clp
Footer,Is it a price oracle?,https://docs.thorchain.org/how-it-works/prices,external_link,doc,footer_docs_prices
Footer,How is it governed?,https://docs.thorchain.org/how-it-works/governance,external_link,doc,footer_docs_governance
Footer,What does it do?,https://thorchain.org/rune#what-does-it-do,None,,
Footer,How many will exist?,https://thorchain.org/rune#how-many-will-exist,None,,
Footer,What influences it?,https://thorchain.org/rune#what-influences-it,None,,
Footer,Where do I get it?,https://thorchain.org/rune#where-do-I-get-it,None,,
Footer,How do I use it?,https://thorchain.org/rune#how-do-I-use-it,None,,
Footer,Liquidity Providers,https://medium.com/thorchain/an-in-depth-guide-to-thorchains-liquidity-pools-c4ea7829e1bf,external_link,article,footer_medium_liquidity_pooling
Homepage,Buy RUNE,http://shapeshift.app.link/wDRGTdULMcb,external_link,promo,shapeshift_mobile_app
Homepage,What's Next?,https://medium.com/@thorchaincommunity/new-thorchain-org-v0-1-62b996980c5,external_link,article,medium_v01
Homepage,Switch RUNE,https://runebridge.org/,external_link,tool,runebridge
Homepage,SushiSwap Pools,https://runebridge.org/pools,external_link,tools,runebridge_pools
Homepage,What Happens at 80%+,https://thorchain.org/rune#what-influences-it,None,,
Homepage,Plz RUNE Me,https://thorchain.org/rune,None,,
Homepage,Try the Simulator,https://www.thorchain.community/,external_link,tool,thorchain_community
Homepage,Coingecko Pair Link,Varies,external_link,other,coingecko_pair
Homepage,Coingecko Show more,https://www.coingecko.com/en/coins/thorchain#markets,external_link,other,coingecko_show_more
Homepage,MehowBrains,https://twitter.com/mehowbrains,external_link,social,twitter_mehowbrains
Homepage,@THORChain_org,https://twitter.com/THORChain_org,external_link,social,twitter_thorchain_org
Homepage,Show this thread,https://twitter.com/mehowbrains/status/1347373080872706049,external_link,social,twitter_show_this_thread
Homepage,Get Started with Liquidity Pooling,https://medium.com/thorchain/an-in-depth-guide-to-thorchains-liquidity-pools-c4ea7829e1bf,external_link,article,medium_liquidity_pooling
Homepage,$RUNE Ranger,https://twitter.com/TheRuneRanger,external_link,social,twitter_theruneranger
Homepage,Show this tweet,https://twitter.com/TheRuneRanger/status/1349460975766921225,external_link,social,twitter_show_this_tweet
Homepage,Get Started with Node Operations,https://docs.thorchain.org/roles/node-operators,external_link,doc,docs_node_operations
Homepage,It'll Scale to 200-300,https://twitter.com/thorchain_org/status/1348126879874617351?s=20,external_link,social,twitter_scale_nodes
Homepage,Which Node Churns Next?,https://defi.delphidigital.io/thorchain/chaosnet/network,external_link,tool,delphi_node_dashboard
Homepage,Verify Vaults,https://viewblock.io/thorchain/vaults,external_link,tool,viewblock_vaults
Homepage,Verify Nodes,https://viewblock.io/thorchain/validators,external_link,tool,viewblock_validators
Homepage,Verify Pools,https://viewblock.io/thorchain/pools,external_link,tool,viewblock_pools
Homepage,View Statistics,https://thorchain.net/,external_link,tool,thorchain_net_stats
Homepage,Build Something,https://docs.thorchain.org/developers/connecting-to-thorchain,external_link,doc,docs_connecting_thorchain
Homepage,Get Funded,https://twitter.com/thorchain_org/status/1315850914092052480?s=20,external_link,social,twitter_treasury_funding
Homepage,Tools Table,See this tab,,,
Technology,Supporting Chains,https://twitter.com/thorchain_org/status/1304211812049534976,external_link,social,twitter_new_chain
Technology,THORNode Ops,https://docs.thorchain.org/thornodes/overview,external_link,doc,docs_node_operations
Technology,Block Explorer,https://viewblock.io/thorchain,external_link,tool,viewblock
Technology,Dev Community,https://t.me/thorchain_dev,external_link,social,telegram_dev
Technology,Active ASGARD Vault,Dynamic,external_link,tool,viewblock_vault_asgard
Technology,Active YGGDRAASIL Vaults,https://viewblock.io/thorchain/vaults,external_link,tool,viewblock_vault_yggdrasil
Technology,THORNode Bonds,https://viewblock.io/thorchain/validators,external_link,tool,viewblock_validators
Technology,MIDGARD API,https://docs.thorchain.org/developers/midgard-api,external_link,doc,docs_midgard_api
Technology,TSS Whitepaper,https://github.com/thorchain/Resources/blob/master/Whitepapers/THORChain-TSS-Paper-June2020.pdf,external_link,paper,paper_tss_whitepaper
Technology,TSS Audit,https://github.com/thorchain/Resources/blob/master/Audits/THORChain-Kudelski-TSS-Audit-June2020.pdf,external_link,paper,paper_tss_audit
Technology,TSS Benchmark,https://github.com/thorchain/Resources/blob/master/Whitepapers/THORChain-TSS-Benchmark-July2020.pdf,external_link,paper,paper_tss_benchmark
Technology,Twitter,https://twitter.com/thorchain_org,external_link,social,twitter
Technology,Telegram,https://t.me/thorchain_org,external_link,social,telegram_community
Technology,Discord,https://discord.gg/WCDWfgq,external_link,social,discord
Technology,What's a Liquidity Provider?,https://medium.com/thorchain/an-in-depth-guide-to-thorchains-liquidity-pools-c4ea7829e1bf,external_link,article,medium_liquidity_pooling
Technology,View Statistics,https://thorchain.net/,external_link,tool,thorchain_net_stats
Technology,Swapping,https://chaosnet.bepswap.com/,external_link,tool,bepswap
Technology,Poviding Liquidity,https://medium.com/thorchain/an-in-depth-guide-to-thorchains-liquidity-pools-c4ea7829e1bf,external_link,article,medium_liquidity_pooling
Technology,Arbitraging,https://twitter.com/mehowbrains/status/1302820452415438848?s=20,external_link,social,twitter_arbitraging
Technology,THORNode Ops,https://docs.thorchain.org/thornodes/overview,external_link,doc,docs_node_operations
RUNE,Emission Schedule,https://docs.google.com/spreadsheets/d/1e5A7TaV6CZtdVqlOSuXSSY7UYiRW9yzd1ST6QTZNqLw/edit#gid=918223980,external_link,sheet,sheet_emissions
RUNE,Incentive Pendulum,https://docs.thorchain.org/how-it-works/incentive-pendulum,external_link,doc,docs_incentive_pendulum
RUNE,Block Reward Calculation,https://docs.thorchain.org/how-it-works/emission-schedule,external_link,doc,docs_emissions
RUNE,Try the Simulator,https://www.thorchain.community/,external_link,tool,thorchain_community
RUNE,Coingecko Pair Link,Varies,external_link,other,coingecko_pair
RUNE,Coingecko Show more,https://www.coingecko.com/en/coins/thorchain#markets,external_link,other,coingecko_show_more
RUNE,Transaction Memos,https://docs.thorchain.org/developers/transaction-memos,external_link,doc,docs_transaction_memos
RUNE,Teach Me,https://medium.com/thorchain/an-in-depth-guide-to-thorchains-liquidity-pools-c4ea7829e1bf,external_link,article,medium_liquidity_pooling
RUNE,Guide Me,https://docs.thorchain.org/roles/node-operators,external_link,doc,docs_node_operations
RUNE,Provide Liquidity,https://medium.com/thorchain/an-in-depth-guide-to-thorchains-liquidity-pools-c4ea7829e1bf,external_link,article,medium_liquidity_pooling