{
  "locale_file_tools_table_content": {
    "runestake": {
      "category": "Tracking",
      "name": "RUNEstake.info",
      "utility": "Track your liquidity and earnings in THORChain pools.",
      "repo": "Private",
      "owner": "@Four4Newt"
    },
    "runedata": {
      "category": "Analytics",
      "name": "RUNEdata.info",
      "utility": "Analyse historical pool earnings and simulate future earnings.",
      "repo": "Github",
      "owner": "@Larrypcdotcom"
    },
    "runebalance": {
      "category": "Arbitraging",
      "name": "RUNEbalance.com",
      "utility": "View arbitrage opportunities between RUNE pools.",
      "repo": "Private",
      "owner": "@SuperZannah"
    },
    "leaderboard": {
      "category": "Tracking",
      "name": "Leaderboard.THORNode.org",
      "utility": "View the top traders in THORChain.",
      "repo": "Github",
      "owner": "@tirinox"
    },
    "telegram_alerts_bot": {
      "category": "Telegram Bot",
      "name": "@THORChain_Alert",
      "utility": "View key network changes in Telegram.",
      "repo": "Private",
      "owner": "@tirinox"
    },
    "telegram_runefaucet_bot": {
      "category": "Telegram Bot",
      "name": "@RUNEfaucetbot",
      "utility": "Request some testnet BNB.RUNE.",
      "repo": "Private",
      "owner": "@tgkai"
    },
    "telegram_monitoring_bot": {
      "category": "Telegram Bot",
      "name": "@THORChain_monitoring_bot",
      "utility": "View key network changes in Telegram.",
      "repo": "Github",
      "owner": "@tirinox"
    },
    "telegram_thor_bot": {
      "category": "Twitter Bot",
      "name": "@THOR_Bot",
      "utility": "View key betwork changes on Twitter.",
      "repo": "Github",
      "owner": "@stuartkuentzel"
    },
    "twitter_thorchainhammer": {
      "category": "Twitter Bot",
      "name": "@THORChainHammer",
      "utility": "Tweet commands-as-replies to reference content on Twitter.",
      "repo": "Private",
      "owner": "@mehowbrains"
    },
    "viewblock": {
      "category": "Explorer",
      "name": "THORChain Explorer",
      "utility": "Official THORChain block explorer.",
      "repo": "Private",
      "owner": "@ashlar"
    },
    "thorchain_net": {
      "category": "Explorer",
      "name": "THORChain Explorer",
      "utility": "Community THORChain block explorer.",
      "repo": "Github",
      "owner": "@stuartkuentzel"
    },
    "thorchain_community": {
      "category": "Simulation",
      "name": "RUNE Price Simulator",
      "utility": "Simulate RUNE’s value.",
      "repo": "Private",
      "owner": "@mehowbrains"
    },
    "delphi_dashboard": {
      "category": "Dashboard",
      "name": "Delphi Digital THORChain",
      "utility": "Liquidity pool and node dashboard.",
      "repo": "Private",
      "owner": "@captainlk"
    },
    "twitter_rune_coins": {
      "category": "Marketing",
      "name": "RUNE Gold Coins",
      "utility": "Token of appreciation from the network to the participants.",
      "repo": "",
      "owner": "@mehowbrains"
    },
    "asgardex_testnet": {
      "category": "Swap / Pool",
      "name": "ASGARDEX Testnet",
      "utility": "Pool and swap native assets.",
      "repo": "Github",
      "owner": "@stuartkuentzel"
    },
    "xchainjs": {
      "category": "Dev Library",
      "name": "XChainJS",
      "utility": "Liteweight javascript library for cross-chain wallets.",
      "repo": "Github",
      "owner": ""
    },
    "xdefi": {
      "category": "Wallet",
      "name": "XDEFI",
      "utility": "Chain agnostic cryptocurrency wallet.",
      "repo": "Private",
      "owner": ""
    },
    "telegram_thornode_bot": {
      "category": "Telegram Bot",
      "name": "THORNode Bot",
      "utility": "Monitor the status of THORNodes.",
      "repo": "Github",
      "owner": "@block42_crypto"
    }
  },
  "links_plugin_tools_table_links": {
    "tools_table": {
      "runestake": {
        "tool_link": {
          "link": "https://www.runestake.info",
          "action": "external_link",
          "category": "tool",
          "label": "runestake"
        },
        "repo_url": null,
        "telegram_url": null,
        "github_url": null,
        "gitlab_url": null,
        "twitter_url": {
          "link": "https://twitter.com/Four4Newt",
          "action": "external_link",
          "category": "social",
          "label": "twitter_four4newt"
        }
      },
      "runedata": {
        "tool_link": {
          "link": "https://www.runedata.info",
          "action": "external_link",
          "category": "tool",
          "label": "runedata"
        },
        "repo_url": {
          "link": "https://github.com/Larrypcdotcom/runedata",
          "action": "external_link",
          "category": "repo",
          "label": "github_runedata"
        },
        "telegram_url": {
          "link": "https://t.me/Larrypc",
          "action": "external_link",
          "category": "social",
          "label": "telegram_larrypc"
        },
        "github_url": {
          "link": "https://github.com/Larrypcdotcom",
          "action": "external_link",
          "category": "social",
          "label": "github_larrypcdotcom"
        },
        "gitlab_url": null,
        "twitter_url": {
          "link": "https://twitter.com/Larrypcdotcom",
          "action": "external_link",
          "category": "social",
          "label": "twitter_larrypcdotcom"
        }
      },
      "runebalance": {
        "tool_link": {
          "link": "https://www.runebalance.com/",
          "action": "external_link",
          "category": "tool",
          "label": "runebalance"
        },
        "repo_url": null,
        "telegram_url": {
          "link": "https://t.me/runebalance",
          "action": "external_link",
          "category": "social",
          "label": "telegram_rebalance"
        },
        "github_url": {
          "link": "https://github.com/SuperZannah",
          "action": "external_link",
          "category": "social",
          "label": "github_superzannah"
        },
        "gitlab_url": {
          "link": "https://gitlab.com/superzannah",
          "action": "external_link",
          "category": "social",
          "label": "gitlab_superzannah"
        },
        "twitter_url": {
          "link": "https://twitter.com/SuperZannah",
          "action": "external_link",
          "category": "social",
          "label": "twitter_superzannah"
        }
      },
      "leaderboard": {
        "tool_link": {
          "link": "https://leaderboard.thornode.org",
          "action": "external_link",
          "category": "tool",
          "label": "leaderboard"
        },
        "repo_url": {
          "link": "https://github.com/tirinox/chaosnetleaders",
          "action": "external_link",
          "category": "repo",
          "label": "github_leaderboard"
        },
        "telegram_url": {
          "link": "https://t.me/account1242",
          "action": "external_link",
          "category": "social",
          "label": "telegram_account1242"
        },
        "github_url": {
          "link": "https://github.com/tirinox",
          "action": "external_link",
          "category": "social",
          "label": "github_tirinox"
        },
        "gitlab_url": null,
        "twitter_url": {
          "link": "https://twitter.com/tirinox",
          "action": "external_link",
          "category": "social",
          "label": "twitter_tirinox"
        }
      },
      "telegram_alerts_bot": {
        "tool_link": {
          "link": "https://t.me/thorchain_alert",
          "action": "external_link",
          "category": "tool",
          "label": "telegram_alerts_bot"
        },
        "repo_url": null,
        "telegram_url": {
          "link": "https://t.me/account1242",
          "action": "external_link",
          "category": "social",
          "label": "telegram_account1242"
        },
        "github_url": {
          "link": "https://github.com/tirinox",
          "action": "external_link",
          "category": "social",
          "label": "github_tirinox"
        },
        "gitlab_url": null,
        "twitter_url": {
          "link": "https://twitter.com/tirinox",
          "action": "external_link",
          "category": "social",
          "label": "twitter_tirinox"
        }
      },
      "telegram_runefaucet_bot": {
        "tool_link": {
          "link": "https://t.me/runefaucetbot",
          "action": "external_link",
          "category": "tool",
          "label": "telegram_runefaucet_bot"
        },
        "repo_url": null,
        "telegram_url": {
          "link": "https://t.me/tgkai",
          "action": "external_link",
          "category": "social",
          "label": "telegram_tgkai"
        },
        "github_url": null,
        "gitlab_url": null,
        "twitter_url": {
          "link": "https://twitter.com/kaiansaari",
          "action": "external_link",
          "category": "social",
          "label": "twitter_kaiansaari"
        }
      },
      "telegram_monitoring_bot": {
        "tool_link": {
          "link": "https://t.me/thorchain_monitoring_bot",
          "action": "external_link",
          "category": "tool",
          "label": "telegram_monitoring_bot"
        },
        "repo_url": {
          "link": "https://github.com/tirinox/thorchainmonitorbot",
          "action": "external_link",
          "category": "repo",
          "label": "github_telegram_monitoring_bot"
        },
        "telegram_url": {
          "link": "https://t.me/account1242",
          "action": "external_link",
          "category": "social",
          "label": "telegram_account1242"
        },
        "github_url": {
          "link": "https://github.com/tirinox",
          "action": "external_link",
          "category": "social",
          "label": "github_tirinox"
        },
        "gitlab_url": null,
        "twitter_url": {
          "link": "https://twitter.com/tirinox",
          "action": "external_link",
          "category": "social",
          "label": "twitter_tirinox"
        }
      },
      "telegram_thor_bot": {
        "tool_link": {
          "link": "https://twitter.com/thor_bot",
          "action": "external_link",
          "category": "tool",
          "label": "telegram_thor_bot"
        },
        "repo_url": {
          "link": "https://github.com/Pusher-Labs/thorchain-twitter-bot",
          "action": "external_link",
          "category": "repo",
          "label": "github_telegram_thor_bot"
        },
        "telegram_url": {
          "link": "https://t.me/stu_k",
          "action": "external_link",
          "category": "social",
          "label": "telegram_stu_k"
        },
        "github_url": {
          "link": "https://github.com/stuartkuentzel",
          "action": "external_link",
          "category": "social",
          "label": "github_stuartkuentzel"
        },
        "gitlab_url": null,
        "twitter_url": {
          "link": "https://twitter.com/swkuentzel",
          "action": "external_link",
          "category": "social",
          "label": "twitter_swkuentzel"
        }
      },
      "twitter_thorchainhammer": {
        "tool_link": {
          "link": "https://twitter.com/thorchainhammer",
          "action": "external_link",
          "category": "tool",
          "label": "twitter_thorchainhammer"
        },
        "repo_url": null,
        "telegram_url": {
          "link": "https://t.me/mehowbrains",
          "action": "external_link",
          "category": "social",
          "label": "telegram_mehowbrains"
        },
        "github_url": null,
        "gitlab_url": {
          "link": "https://gitlab.com/mehowbrains",
          "action": "external_link",
          "category": "social",
          "label": "gitlab_mehowbrains"
        },
        "twitter_url": {
          "link": "https://twitter.com/mehowbrains",
          "action": "external_link",
          "category": "social",
          "label": "twitter_mehowbrains"
        }
      },
      "viewblock": {
        "tool_link": {
          "link": "https://viewblock.io/thorchain",
          "action": "external_link",
          "category": "tool",
          "label": "viewblock"
        },
        "repo_url": null,
        "telegram_url": null,
        "github_url": {
          "link": "https://github.com/Ashlar",
          "action": "",
          "category": "",
          "label": "github_ashlar"
        },
        "gitlab_url": null,
        "twitter_url": {
          "link": "https://twitter.com/view_block",
          "action": "external_link",
          "category": "social",
          "label": "twitter_view_block"
        }
      },
      "thorchain_net": {
        "tool_link": {
          "link": "https://thorchain.net/",
          "action": "external_link",
          "category": "tool",
          "label": "thorchain_net"
        },
        "repo_url": {
          "link": "https://github.com/Pusher-Labs/thorchain-explorer",
          "action": "external_link",
          "category": "repo",
          "label": "github_thorchain_net"
        },
        "telegram_url": {
          "link": "https://t.me/stu_k",
          "action": "external_link",
          "category": "social",
          "label": "telegram_stu_k"
        },
        "github_url": {
          "link": "https://github.com/stuartkuentzel",
          "action": "external_link",
          "category": "social",
          "label": "github_stuartkuentzel"
        },
        "gitlab_url": null,
        "twitter_url": {
          "link": "https://twitter.com/swkuentzel",
          "action": "external_link",
          "category": "social",
          "label": "twitter_swkuentzel"
        }
      },
      "thorchain_community": {
        "tool_link": {
          "link": "https://thorchain.community",
          "action": "external_link",
          "category": "tool",
          "label": "thorchain_community"
        },
        "repo_url": null,
        "telegram_url": {
          "link": "https://t.me/mehowbrains",
          "action": "external_link",
          "category": "social",
          "label": "telegram_mehowbrains"
        },
        "github_url": null,
        "gitlab_url": {
          "link": "https://gitlab.com/mehowbrains",
          "action": "external_link",
          "category": "social",
          "label": "gitlab_mehowbrains"
        },
        "twitter_url": {
          "link": "https://twitter.com/mehowbrains",
          "action": "external_link",
          "category": "social",
          "label": "twitter_mehowbrains"
        }
      },
      "delphi_dashboard": {
        "tool_link": {
          "link": "https://defi.delphidigital.io/thorchain",
          "action": "external_link",
          "category": "tool",
          "label": "delphi_dashboard"
        },
        "repo_url": null,
        "telegram_url": {
          "link": "https://t.me/captainlk",
          "action": "external_link",
          "category": "social",
          "label": "telegram_captainlk"
        },
        "github_url": null,
        "gitlab_url": null,
        "twitter_url": {
          "link": "https://twitter.com/lukedelphi",
          "action": "external_link",
          "category": "social",
          "label": "twitter_lukedelphi"
        }
      },
      "twitter_rune_coins": {
        "tool_link": {
          "link": "https://twitter.com/mehowbrains/status/1336593711766114304",
          "action": "external_link",
          "category": "tool",
          "label": "twitter_rune_coins"
        },
        "repo_url": null,
        "telegram_url": {
          "link": "https://t.me/mehowbrains",
          "action": "external_link",
          "category": "social",
          "label": "telegram_mehowbrains"
        },
        "github_url": null,
        "gitlab_url": null,
        "twitter_url": {
          "link": "https://twitter.com/mehowbrains",
          "action": "external_link",
          "category": "social",
          "label": "twitter_mehowbrains"
        }
      },
      "asgardex_testnet": {
        "tool_link": {
          "link": "https://testnet.asgard.exchange/",
          "action": "external_link",
          "category": "tool",
          "label": "asgardex_testnet"
        },
        "repo_url": {
          "link": "https://github.com/Pusher-Labs/asgard-exchange",
          "action": "external_link",
          "category": "repo",
          "label": "github_asgardex"
        },
        "telegram_url": {
          "link": "https://t.me/stu_k",
          "action": "external_link",
          "category": "social",
          "label": "telegram_stu_k"
        },
        "github_url": {
          "link": "https://github.com/stuartkuentzel",
          "action": "external_link",
          "category": "social",
          "label": "github_stuartkuentzel"
        },
        "gitlab_url": null,
        "twitter_url": {
          "link": "https://twitter.com/swkuentzel",
          "action": "external_link",
          "category": "social",
          "label": "twitter_swkuentzel"
        }
      },
      "xchainjs": {
        "tool_link": {
          "link": "https://xchainjs.org",
          "action": "external_link",
          "category": "tool",
          "label": "xchainjs"
        },
        "repo_url": {
          "link": "https://github.com/xchainjs/xchainjs-lib",
          "action": "external_link",
          "category": "repo",
          "label": "github_xchainjs"
        },
        "telegram_url": {
          "link": "https://t.me/xchainjs",
          "action": "external_link",
          "category": "social",
          "label": "telegram_xchainjs"
        },
        "github_url": {
          "link": "https://github.com/xchainjs/xchainjs-lib",
          "action": "external_link",
          "category": "social",
          "label": "github_xchain"
        },
        "gitlab_url": null,
        "twitter_url": {
          "link": "https://twitter.com/xchainjs",
          "action": "external_link",
          "category": "social",
          "label": "twitter_xchainjs"
        }
      },
      "xdefi": {
        "tool_link": {
          "link": "https://www.xdefi.io",
          "action": "external_link",
          "category": "tool",
          "label": "xdefi"
        },
        "repo_url": null,
        "telegram_url": {
          "link": "https://t.me/xdefi_io",
          "action": "external_link",
          "category": "social",
          "label": "telegram_xdefi_io"
        },
        "github_url": null,
        "gitlab_url": null,
        "twitter_url": {
          "link": "https://twitter.com/xdefi_wallet",
          "action": "external_link",
          "category": "social",
          "label": "twitter_xdefi_wallet"
        }
      },
      "telegram_thornode_bot": {
        "tool_link": {
          "link": "https://github.com/block42-blockchain-company/thornode-telegram-bot",
          "action": "external_link",
          "category": "tool",
          "label": "telegram_thornode_bot"
        },
        "repo_url": {
          "link": "https://github.com/block42-blockchain-company/thornode-telegram-bot",
          "action": "external_link",
          "category": "repo",
          "label": "github_telegram_thornode_bot"
        },
        "telegram_url": {
          "link": "https://t.me/block42_crypto",
          "action": "external_link",
          "category": "social",
          "label": "telegram_block42_crypto"
        },
        "github_url": {
          "link": "https://github.com/block42-blockchain-company",
          "action": "external_link",
          "category": "social",
          "label": "github_block42_crypto"
        },
        "gitlab_url": null,
        "twitter_url": {
          "link": "https://twitter.com/block42_company",
          "action": "external_link",
          "category": "social",
          "label": "twitter_block42_company"
        }
      }
    }
  }
}