<?xml version="1.0" encoding="UTF-8"?>
<svg width="36px" height="36px" viewBox="0 0 36 36" version="1.1" xmlns="http://www.w3.org/2000/svg" xmlns:xlink="http://www.w3.org/1999/xlink">
    <title>Avatar</title>
    <defs>
        <circle id="path-1" cx="18" cy="18" r="18"></circle>
    </defs>
    <g id="⚡-Active---THORChain.org" stroke="none" stroke-width="1" fill="none" fill-rule="evenodd">
        <g id="Mobile:-Story-Card-Builder" transform="translate(-13.000000, -22.000000)">
            <g id="Heading" transform="translate(13.000000, 9.500000)">
                <g id="Avatar" transform="translate(0.000000, 12.500000)">
                    <mask id="mask-2" fill="white">
                        <use xlink:href="#path-1"></use>
                    </mask>
                    <use id="Oval" fill="#030211" xlink:href="#path-1"></use>
                    <g id="XDEFI-Brandmark-White" mask="url(#mask-2)" fill="#FFFFFF" fill-rule="nonzero">
                        <g transform="translate(7.000000, 7.000000)">
                            <path d="M13.1636115,12.5583937 C11.4572155,13.6166189 9.1731887,14.1616048 6.86001535,14.0452001 C4.91514794,13.9499598 3.32003871,13.2515312 2.35555406,12.1033569 C1.50765546,11.0768785 1.17644507,9.72235029 1.40166814,8.16411374 C1.47489054,7.64609901 1.62865694,7.14267232 1.85741363,6.67201627 L1.88920983,6.6058772 C4.09976812,2.35191479 9.02455513,0.264731711 13.6249414,1.63213515 C18.2253276,2.99953859 21.2049441,7.43620016 20.7253458,12.2046673 C20.2457474,16.9731345 16.442083,20.7296738 11.6612411,21.1564731 L11.7672285,22.3707865 C17.132274,21.8956026 21.4028954,17.6823167 21.9429499,12.33168 C22.4830044,6.9810432 19.14022,2.0017033 13.97801,0.467276426 C8.81580008,-1.06715045 3.28968409,1.27597761 0.810788804,6.05030899 L0.768393875,6.13761256 C0.486317357,6.72258904 0.295114506,7.3470464 0.201361689,7.98950659 C-0.0636066224,9.88902075 0.349743943,11.5795354 1.4228656,12.8811524 C2.59667522,14.3044652 4.50709675,15.1510454 6.79907264,15.262159 C9.58918895,15.4023738 12.3634072,14.6430973 14.3321217,13.2462401 L13.1636115,12.5583937 Z" id="Path"></path>
                            <path d="M15.4741809,13.8426966 C14.3707633,14.8059321 11.8084117,16.552458 7.5527486,16.7906207 C2.78619527,17.0552458 0.803203739,15.49925 0.7821361,15.4833725 L0.400285142,15.9596977 L0.790036465,15.4913112 L0,16.4280842 C0.0842705562,16.499533 1.98825844,18.0449438 6.45723137,18.0449438 C6.8232816,18.0449438 7.20776601,18.0449438 7.60805115,18.0131888 C12.7511885,17.7247474 15.5795191,15.4701412 16.5617978,14.5069057 L15.4741809,13.8426966 Z" id="Path"></path>
                            <path d="M17.611467,15.0893035 C16.9561881,15.9558886 16.1506372,16.6956975 15.2338065,17.2729206 C12.0001882,19.3766492 7.88683556,19.6482699 5.00458266,19.5018078 L4.94382022,20.7294266 C5.42727786,20.7533932 5.89488443,20.7640449 6.34663992,20.7640449 C14.4650296,20.7640449 17.748843,17.0359182 18.6629213,15.7044444 L17.6061833,15.0786517" id="Path"></path>
                            <circle id="Oval" cx="17.3033708" cy="9.51685393" r="1"></circle>
                        </g>
                    </g>
                </g>
            </g>
        </g>
    </g>
</svg>